%YAML 1.1
%TAG !u! tag:unity3d.com,2011:
--- !u!29 &1
OcclusionCullingSettings:
  m_ObjectHideFlags: 0
  serializedVersion: 2
  m_OcclusionBakeSettings:
    smallestOccluder: 1
    smallestHole: 0.05
    backfaceThreshold: 100
  m_SceneGUID: 00000000000000000000000000000000
  m_OcclusionCullingData: {fileID: 0}
--- !u!104 &2
RenderSettings:
  m_ObjectHideFlags: 0
  serializedVersion: 9
  m_Fog: 1
  m_FogColor: {r: 0.512381, g: 0.56115764, b: 0.5955882, a: 1}
  m_FogMode: 1
  m_FogDensity: 0.01
  m_LinearFogStart: 30
  m_LinearFogEnd: 300
  m_AmbientSkyColor: {r: 0.212, g: 0.227, b: 0.259, a: 1}
  m_AmbientEquatorColor: {r: 0.114, g: 0.125, b: 0.133, a: 1}
  m_AmbientGroundColor: {r: 0.047, g: 0.043, b: 0.035, a: 1}
  m_AmbientIntensity: 1
  m_AmbientMode: 0
  m_SubtractiveShadowColor: {r: 0.42, g: 0.478, b: 0.627, a: 1}
  m_SkyboxMaterial: {fileID: 0}
  m_HaloStrength: 0.5
  m_FlareStrength: 1
  m_FlareFadeSpeed: 3
  m_HaloTexture: {fileID: 0}
  m_SpotCookie: {fileID: 10001, guid: 0000000000000000e000000000000000, type: 0}
  m_DefaultReflectionMode: 0
  m_DefaultReflectionResolution: 128
  m_ReflectionBounces: 1
  m_ReflectionIntensity: 1
  m_CustomReflection: {fileID: 0}
  m_Sun: {fileID: 0}
  m_IndirectSpecularColor: {r: 463.92404, g: 279.54904, b: 220.64761, a: 1}
  m_UseRadianceAmbientProbe: 0
--- !u!157 &3
LightmapSettings:
  m_ObjectHideFlags: 0
  serializedVersion: 11
  m_GIWorkflowMode: 1
  m_GISettings:
    serializedVersion: 2
    m_BounceScale: 1
    m_IndirectOutputScale: 1
    m_AlbedoBoost: 1
    m_EnvironmentLightingMode: 0
    m_EnableBakedLightmaps: 1
    m_EnableRealtimeLightmaps: 0
  m_LightmapEditorSettings:
    serializedVersion: 12
    m_Resolution: 2
    m_BakeResolution: 20
    m_AtlasSize: 2048
    m_AO: 1
    m_AOMaxDistance: 1
    m_CompAOExponent: 1
    m_CompAOExponentDirect: 1
    m_ExtractAmbientOcclusion: 0
    m_Padding: 2
    m_LightmapParameters: {fileID: 15200, guid: 0000000000000000f000000000000000,
      type: 0}
    m_LightmapsBakeMode: 0
    m_TextureCompression: 1
    m_FinalGather: 0
    m_FinalGatherFiltering: 1
    m_FinalGatherRayCount: 256
    m_ReflectionCompression: 2
    m_MixedBakeMode: 0
    m_BakeBackend: 2
    m_PVRSampling: 1
    m_PVRDirectSampleCount: 16
    m_PVRSampleCount: 256
    m_PVRBounces: 2
    m_PVREnvironmentSampleCount: 256
    m_PVREnvironmentReferencePointCount: 2048
    m_PVRFilteringMode: 0
    m_PVRDenoiserTypeDirect: 0
    m_PVRDenoiserTypeIndirect: 0
    m_PVRDenoiserTypeAO: 0
    m_PVRFilterTypeDirect: 0
    m_PVRFilterTypeIndirect: 0
    m_PVRFilterTypeAO: 0
    m_PVREnvironmentMIS: 0
    m_PVRCulling: 1
    m_PVRFilteringGaussRadiusDirect: 1
    m_PVRFilteringGaussRadiusIndirect: 5
    m_PVRFilteringGaussRadiusAO: 2
    m_PVRFilteringAtrousPositionSigmaDirect: 0.5
    m_PVRFilteringAtrousPositionSigmaIndirect: 2
    m_PVRFilteringAtrousPositionSigmaAO: 1
    m_ExportTrainingData: 0
    m_TrainingDataDestination: TrainingData
    m_LightProbeSampleCountMultiplier: 4
  m_LightingDataAsset: {fileID: 0}
  m_UseShadowmask: 0
--- !u!196 &4
NavMeshSettings:
  serializedVersion: 2
  m_ObjectHideFlags: 0
  m_BuildSettings:
    serializedVersion: 2
    agentTypeID: 0
    agentRadius: 0.5
    agentHeight: 2
    agentSlope: 45
    agentClimb: 0.4
    ledgeDropHeight: 0
    maxJumpAcrossDistance: 0
    minRegionArea: 2
    manualCellSize: 0
    cellSize: 0.16666667
    manualTileSize: 0
    tileSize: 256
    accuratePlacement: 0
    debug:
      m_Flags: 0
  m_NavMeshData: {fileID: 0}
--- !u!1001 &18749591
PrefabInstance:
  m_ObjectHideFlags: 0
  serializedVersion: 2
  m_Modification:
    m_TransformParent: {fileID: 1009527037}
    m_Modifications:
    - target: {fileID: 4966437632975513765, guid: b6d49af93046c6342ac6de8e7e259e46,
        type: 3}
      propertyPath: m_Name
      value: grass (4)
      objectReference: {fileID: 0}
    - target: {fileID: 8266090407951456950, guid: b6d49af93046c6342ac6de8e7e259e46,
        type: 3}
      propertyPath: m_LocalPosition.x
      value: -0.6319996
      objectReference: {fileID: 0}
    - target: {fileID: 8266090407951456950, guid: b6d49af93046c6342ac6de8e7e259e46,
        type: 3}
      propertyPath: m_LocalPosition.y
      value: -0.19
      objectReference: {fileID: 0}
    - target: {fileID: 8266090407951456950, guid: b6d49af93046c6342ac6de8e7e259e46,
        type: 3}
      propertyPath: m_LocalPosition.z
      value: 6.74
      objectReference: {fileID: 0}
    - target: {fileID: 8266090407951456950, guid: b6d49af93046c6342ac6de8e7e259e46,
        type: 3}
      propertyPath: m_LocalRotation.x
      value: 0.000000021855694
      objectReference: {fileID: 0}
    - target: {fileID: 8266090407951456950, guid: b6d49af93046c6342ac6de8e7e259e46,
        type: 3}
      propertyPath: m_LocalRotation.y
      value: -0
      objectReference: {fileID: 0}
    - target: {fileID: 8266090407951456950, guid: b6d49af93046c6342ac6de8e7e259e46,
        type: 3}
      propertyPath: m_LocalRotation.z
      value: -0
      objectReference: {fileID: 0}
    - target: {fileID: 8266090407951456950, guid: b6d49af93046c6342ac6de8e7e259e46,
        type: 3}
      propertyPath: m_LocalRotation.w
      value: 1
      objectReference: {fileID: 0}
    - target: {fileID: 8266090407951456950, guid: b6d49af93046c6342ac6de8e7e259e46,
        type: 3}
      propertyPath: m_RootOrder
      value: 3
      objectReference: {fileID: 0}
    - target: {fileID: 8266090407951456950, guid: b6d49af93046c6342ac6de8e7e259e46,
        type: 3}
      propertyPath: m_LocalEulerAnglesHint.x
      value: 0
      objectReference: {fileID: 0}
    - target: {fileID: 8266090407951456950, guid: b6d49af93046c6342ac6de8e7e259e46,
        type: 3}
      propertyPath: m_LocalEulerAnglesHint.y
      value: 0
      objectReference: {fileID: 0}
    - target: {fileID: 8266090407951456950, guid: b6d49af93046c6342ac6de8e7e259e46,
        type: 3}
      propertyPath: m_LocalEulerAnglesHint.z
      value: 0
      objectReference: {fileID: 0}
    - target: {fileID: 8266090407951456950, guid: b6d49af93046c6342ac6de8e7e259e46,
        type: 3}
      propertyPath: m_LocalScale.x
      value: 0.58764
      objectReference: {fileID: 0}
    - target: {fileID: 8266090407951456950, guid: b6d49af93046c6342ac6de8e7e259e46,
        type: 3}
      propertyPath: m_LocalScale.y
      value: 0.58764
      objectReference: {fileID: 0}
    - target: {fileID: 8266090407951456950, guid: b6d49af93046c6342ac6de8e7e259e46,
        type: 3}
      propertyPath: m_LocalScale.z
      value: 0.58764
      objectReference: {fileID: 0}
    m_RemovedComponents: []
  m_SourcePrefab: {fileID: 100100000, guid: b6d49af93046c6342ac6de8e7e259e46, type: 3}
--- !u!4 &18749592 stripped
Transform:
  m_CorrespondingSourceObject: {fileID: 8266090407951456950, guid: b6d49af93046c6342ac6de8e7e259e46,
    type: 3}
  m_PrefabInstance: {fileID: 18749591}
  m_PrefabAsset: {fileID: 0}
--- !u!1 &25084515
GameObject:
  m_ObjectHideFlags: 0
  m_CorrespondingSourceObject: {fileID: 0}
  m_PrefabInstance: {fileID: 0}
  m_PrefabAsset: {fileID: 0}
  serializedVersion: 6
  m_Component:
  - component: {fileID: 25084519}
  - component: {fileID: 25084518}
  - component: {fileID: 25084517}
  - component: {fileID: 25084516}
  m_Layer: 0
  m_Name: Camera
  m_TagString: Untagged
  m_Icon: {fileID: 0}
  m_NavMeshLayer: 0
  m_StaticEditorFlags: 0
  m_IsActive: 1
--- !u!114 &25084516
MonoBehaviour:
  m_ObjectHideFlags: 0
  m_CorrespondingSourceObject: {fileID: 0}
  m_PrefabInstance: {fileID: 0}
  m_PrefabAsset: {fileID: 0}
  m_GameObject: {fileID: 25084515}
  m_Enabled: 1
  m_EditorHideFlags: 0
  m_Script: {fileID: 11500000, guid: 23c1ce4fb46143f46bc5cb5224c934f6, type: 3}
  m_Name: 
  m_EditorClassIdentifier: 
  m_Version: 7
  m_ObsoleteRenderingPath: 0
  m_ObsoleteFrameSettings:
    overrides: 0
    enableShadow: 0
    enableContactShadows: 0
    enableShadowMask: 0
    enableSSR: 0
    enableSSAO: 0
    enableSubsurfaceScattering: 0
    enableTransmission: 0
    enableAtmosphericScattering: 0
    enableVolumetrics: 0
    enableReprojectionForVolumetrics: 0
    enableLightLayers: 0
    enableExposureControl: 1
    diffuseGlobalDimmer: 0
    specularGlobalDimmer: 0
    shaderLitMode: 0
    enableDepthPrepassWithDeferredRendering: 0
    enableTransparentPrepass: 0
    enableMotionVectors: 0
    enableObjectMotionVectors: 0
    enableDecals: 0
    enableRoughRefraction: 0
    enableTransparentPostpass: 0
    enableDistortion: 0
    enablePostprocess: 0
    enableOpaqueObjects: 0
    enableTransparentObjects: 0
    enableRealtimePlanarReflection: 0
    enableMSAA: 0
    enableAsyncCompute: 0
    runLightListAsync: 0
    runSSRAsync: 0
    runSSAOAsync: 0
    runContactShadowsAsync: 0
    runVolumeVoxelizationAsync: 0
    lightLoopSettings:
      overrides: 0
      enableDeferredTileAndCluster: 0
      enableComputeLightEvaluation: 0
      enableComputeLightVariants: 0
      enableComputeMaterialVariants: 0
      enableFptlForForwardOpaque: 0
      enableBigTilePrepass: 0
      isFptlEnabled: 0
  clearColorMode: 0
  backgroundColorHDR: {r: 0.025, g: 0.07, b: 0.19, a: 0}
  clearDepth: 1
  volumeLayerMask:
    serializedVersion: 2
    m_Bits: 1
  volumeAnchorOverride: {fileID: 0}
  antialiasing: 3
  SMAAQuality: 2
  dithering: 0
  stopNaNs: 0
  taaSharpenStrength: 0.6
  physicalParameters:
    m_Iso: 200
    m_ShutterSpeed: 0.005
    m_Aperture: 16
    m_BladeCount: 5
    m_Curvature: {x: 2, y: 11}
    m_BarrelClipping: 0.25
    m_Anamorphism: 0
  flipYMode: 0
  fullscreenPassthrough: 0
  allowDynamicResolution: 0
  customRenderingSettings: 0
  invertFaceCulling: 0
  probeLayerMask:
    serializedVersion: 2
    m_Bits: 4294967295
  hasPersistentHistory: 0
  m_RenderingPathCustomFrameSettings:
    bitDatas:
      data1: 70297877217101
      data2: 4539628425463136256
    lodBias: 1
    lodBiasMode: 0
    lodBiasQualityLevel: 0
    maximumLODLevel: 0
    maximumLODLevelMode: 0
    maximumLODLevelQualityLevel: 0
    materialQuality: 0
  renderingPathCustomFrameSettingsOverrideMask:
    mask:
      data1: 0
      data2: 0
  defaultFrameSettings: 0
--- !u!81 &25084517
AudioListener:
  m_ObjectHideFlags: 0
  m_CorrespondingSourceObject: {fileID: 0}
  m_PrefabInstance: {fileID: 0}
  m_PrefabAsset: {fileID: 0}
  m_GameObject: {fileID: 25084515}
  m_Enabled: 1
--- !u!20 &25084518
Camera:
  m_ObjectHideFlags: 0
  m_CorrespondingSourceObject: {fileID: 0}
  m_PrefabInstance: {fileID: 0}
  m_PrefabAsset: {fileID: 0}
  m_GameObject: {fileID: 25084515}
  m_Enabled: 1
  serializedVersion: 2
  m_ClearFlags: 1
  m_BackGroundColor: {r: 0.19215687, g: 0.3019608, b: 0.4745098, a: 0}
  m_projectionMatrixMode: 1
  m_GateFitMode: 2
  m_FOVAxisMode: 0
  m_SensorSize: {x: 36, y: 24}
  m_LensShift: {x: 0, y: 0}
  m_FocalLength: 50
  m_NormalizedViewPortRect:
    serializedVersion: 2
    x: 0
    y: 0
    width: 1
    height: 1
  near clip plane: 0.3
  far clip plane: 1000
  field of view: 60
  orthographic: 0
  orthographic size: 5
  m_Depth: 0
  m_CullingMask:
    serializedVersion: 2
    m_Bits: 4294967295
  m_RenderingPath: -1
  m_TargetTexture: {fileID: 0}
  m_TargetDisplay: 0
  m_TargetEye: 3
  m_HDR: 0
  m_AllowMSAA: 0
  m_AllowDynamicResolution: 0
  m_ForceIntoRT: 0
  m_OcclusionCulling: 1
  m_StereoConvergence: 10
  m_StereoSeparation: 0.022
--- !u!4 &25084519
Transform:
  m_ObjectHideFlags: 0
  m_CorrespondingSourceObject: {fileID: 0}
  m_PrefabInstance: {fileID: 0}
  m_PrefabAsset: {fileID: 0}
  m_GameObject: {fileID: 25084515}
  m_LocalRotation: {x: 0, y: 0, z: 0, w: 1}
  m_LocalPosition: {x: 22.913008, y: 2.739355, z: -24.518072}
  m_LocalScale: {x: 1, y: 1, z: 1}
  m_Children: []
  m_Father: {fileID: 0}
  m_RootOrder: 5
  m_LocalEulerAnglesHint: {x: 0, y: 0, z: 0}
--- !u!1 &174446702
GameObject:
  m_ObjectHideFlags: 0
  m_CorrespondingSourceObject: {fileID: 0}
  m_PrefabInstance: {fileID: 0}
  m_PrefabAsset: {fileID: 0}
  serializedVersion: 6
  m_Component:
  - component: {fileID: 174446703}
  m_Layer: 0
  m_Name: Volumes
  m_TagString: Untagged
  m_Icon: {fileID: 0}
  m_NavMeshLayer: 0
  m_StaticEditorFlags: 0
  m_IsActive: 1
--- !u!4 &174446703
Transform:
  m_ObjectHideFlags: 0
  m_CorrespondingSourceObject: {fileID: 0}
  m_PrefabInstance: {fileID: 0}
  m_PrefabAsset: {fileID: 0}
  m_GameObject: {fileID: 174446702}
  m_LocalRotation: {x: 0, y: 0, z: 0, w: 1}
  m_LocalPosition: {x: 0, y: 0, z: 0}
  m_LocalScale: {x: 1, y: 1, z: 1}
  m_Children:
  - {fileID: 515808553}
  m_Father: {fileID: 753367946}
  m_RootOrder: 1
  m_LocalEulerAnglesHint: {x: 0, y: 0, z: 0}
--- !u!1001 &231033985
PrefabInstance:
  m_ObjectHideFlags: 0
  serializedVersion: 2
  m_Modification:
    m_TransformParent: {fileID: 1009527037}
    m_Modifications:
    - target: {fileID: 4966437632975513765, guid: b6d49af93046c6342ac6de8e7e259e46,
        type: 3}
      propertyPath: m_Name
      value: grass (3)
      objectReference: {fileID: 0}
    - target: {fileID: 8266090407951456950, guid: b6d49af93046c6342ac6de8e7e259e46,
        type: 3}
      propertyPath: m_LocalPosition.x
      value: -0.5649996
      objectReference: {fileID: 0}
    - target: {fileID: 8266090407951456950, guid: b6d49af93046c6342ac6de8e7e259e46,
        type: 3}
      propertyPath: m_LocalPosition.y
      value: -0.19
      objectReference: {fileID: 0}
    - target: {fileID: 8266090407951456950, guid: b6d49af93046c6342ac6de8e7e259e46,
        type: 3}
      propertyPath: m_LocalPosition.z
      value: -0.95999855
      objectReference: {fileID: 0}
    - target: {fileID: 8266090407951456950, guid: b6d49af93046c6342ac6de8e7e259e46,
        type: 3}
      propertyPath: m_LocalRotation.x
      value: 0.000000021855694
      objectReference: {fileID: 0}
    - target: {fileID: 8266090407951456950, guid: b6d49af93046c6342ac6de8e7e259e46,
        type: 3}
      propertyPath: m_LocalRotation.y
      value: -0
      objectReference: {fileID: 0}
    - target: {fileID: 8266090407951456950, guid: b6d49af93046c6342ac6de8e7e259e46,
        type: 3}
      propertyPath: m_LocalRotation.z
      value: -0
      objectReference: {fileID: 0}
    - target: {fileID: 8266090407951456950, guid: b6d49af93046c6342ac6de8e7e259e46,
        type: 3}
      propertyPath: m_LocalRotation.w
      value: 1
      objectReference: {fileID: 0}
    - target: {fileID: 8266090407951456950, guid: b6d49af93046c6342ac6de8e7e259e46,
        type: 3}
      propertyPath: m_RootOrder
      value: 2
      objectReference: {fileID: 0}
    - target: {fileID: 8266090407951456950, guid: b6d49af93046c6342ac6de8e7e259e46,
        type: 3}
      propertyPath: m_LocalEulerAnglesHint.x
      value: 0
      objectReference: {fileID: 0}
    - target: {fileID: 8266090407951456950, guid: b6d49af93046c6342ac6de8e7e259e46,
        type: 3}
      propertyPath: m_LocalEulerAnglesHint.y
      value: 0
      objectReference: {fileID: 0}
    - target: {fileID: 8266090407951456950, guid: b6d49af93046c6342ac6de8e7e259e46,
        type: 3}
      propertyPath: m_LocalEulerAnglesHint.z
      value: 0
      objectReference: {fileID: 0}
    - target: {fileID: 8266090407951456950, guid: b6d49af93046c6342ac6de8e7e259e46,
        type: 3}
      propertyPath: m_LocalScale.x
      value: 0.58764
      objectReference: {fileID: 0}
    - target: {fileID: 8266090407951456950, guid: b6d49af93046c6342ac6de8e7e259e46,
        type: 3}
      propertyPath: m_LocalScale.y
      value: 0.58764
      objectReference: {fileID: 0}
    - target: {fileID: 8266090407951456950, guid: b6d49af93046c6342ac6de8e7e259e46,
        type: 3}
      propertyPath: m_LocalScale.z
      value: 0.58764
      objectReference: {fileID: 0}
    m_RemovedComponents: []
  m_SourcePrefab: {fileID: 100100000, guid: b6d49af93046c6342ac6de8e7e259e46, type: 3}
--- !u!4 &231033986 stripped
Transform:
  m_CorrespondingSourceObject: {fileID: 8266090407951456950, guid: b6d49af93046c6342ac6de8e7e259e46,
    type: 3}
  m_PrefabInstance: {fileID: 231033985}
  m_PrefabAsset: {fileID: 0}
--- !u!1001 &239071025
PrefabInstance:
  m_ObjectHideFlags: 0
  serializedVersion: 2
  m_Modification:
    m_TransformParent: {fileID: 1009527037}
    m_Modifications:
    - target: {fileID: 4966437632975513765, guid: b6d49af93046c6342ac6de8e7e259e46,
        type: 3}
      propertyPath: m_Name
      value: grass (11)
      objectReference: {fileID: 0}
    - target: {fileID: 8266090407951456950, guid: b6d49af93046c6342ac6de8e7e259e46,
        type: 3}
      propertyPath: m_LocalPosition.x
      value: -0.05
      objectReference: {fileID: 0}
    - target: {fileID: 8266090407951456950, guid: b6d49af93046c6342ac6de8e7e259e46,
        type: 3}
      propertyPath: m_LocalPosition.y
      value: -0.19
      objectReference: {fileID: 0}
    - target: {fileID: 8266090407951456950, guid: b6d49af93046c6342ac6de8e7e259e46,
        type: 3}
      propertyPath: m_LocalPosition.z
      value: -0.77
      objectReference: {fileID: 0}
    - target: {fileID: 8266090407951456950, guid: b6d49af93046c6342ac6de8e7e259e46,
        type: 3}
      propertyPath: m_LocalRotation.x
      value: 0.000000021855694
      objectReference: {fileID: 0}
    - target: {fileID: 8266090407951456950, guid: b6d49af93046c6342ac6de8e7e259e46,
        type: 3}
      propertyPath: m_LocalRotation.y
      value: -0
      objectReference: {fileID: 0}
    - target: {fileID: 8266090407951456950, guid: b6d49af93046c6342ac6de8e7e259e46,
        type: 3}
      propertyPath: m_LocalRotation.z
      value: -0
      objectReference: {fileID: 0}
    - target: {fileID: 8266090407951456950, guid: b6d49af93046c6342ac6de8e7e259e46,
        type: 3}
      propertyPath: m_LocalRotation.w
      value: 1
      objectReference: {fileID: 0}
    - target: {fileID: 8266090407951456950, guid: b6d49af93046c6342ac6de8e7e259e46,
        type: 3}
      propertyPath: m_RootOrder
      value: 10
      objectReference: {fileID: 0}
    - target: {fileID: 8266090407951456950, guid: b6d49af93046c6342ac6de8e7e259e46,
        type: 3}
      propertyPath: m_LocalEulerAnglesHint.x
      value: 0
      objectReference: {fileID: 0}
    - target: {fileID: 8266090407951456950, guid: b6d49af93046c6342ac6de8e7e259e46,
        type: 3}
      propertyPath: m_LocalEulerAnglesHint.y
      value: 0
      objectReference: {fileID: 0}
    - target: {fileID: 8266090407951456950, guid: b6d49af93046c6342ac6de8e7e259e46,
        type: 3}
      propertyPath: m_LocalEulerAnglesHint.z
      value: 0
      objectReference: {fileID: 0}
    - target: {fileID: 8266090407951456950, guid: b6d49af93046c6342ac6de8e7e259e46,
        type: 3}
      propertyPath: m_LocalScale.x
      value: 0.58764
      objectReference: {fileID: 0}
    - target: {fileID: 8266090407951456950, guid: b6d49af93046c6342ac6de8e7e259e46,
        type: 3}
      propertyPath: m_LocalScale.y
      value: 0.58764
      objectReference: {fileID: 0}
    - target: {fileID: 8266090407951456950, guid: b6d49af93046c6342ac6de8e7e259e46,
        type: 3}
      propertyPath: m_LocalScale.z
      value: 0.58764
      objectReference: {fileID: 0}
    m_RemovedComponents: []
  m_SourcePrefab: {fileID: 100100000, guid: b6d49af93046c6342ac6de8e7e259e46, type: 3}
--- !u!4 &239071026 stripped
Transform:
  m_CorrespondingSourceObject: {fileID: 8266090407951456950, guid: b6d49af93046c6342ac6de8e7e259e46,
    type: 3}
  m_PrefabInstance: {fileID: 239071025}
  m_PrefabAsset: {fileID: 0}
--- !u!1001 &246055531
PrefabInstance:
  m_ObjectHideFlags: 0
  serializedVersion: 2
  m_Modification:
    m_TransformParent: {fileID: 1009527037}
    m_Modifications:
    - target: {fileID: 4966437632975513765, guid: b6d49af93046c6342ac6de8e7e259e46,
        type: 3}
      propertyPath: m_Name
      value: grass (16)
      objectReference: {fileID: 0}
    - target: {fileID: 8266090407951456950, guid: b6d49af93046c6342ac6de8e7e259e46,
        type: 3}
      propertyPath: m_LocalPosition.x
      value: -0.13899773
      objectReference: {fileID: 0}
    - target: {fileID: 8266090407951456950, guid: b6d49af93046c6342ac6de8e7e259e46,
        type: 3}
      propertyPath: m_LocalPosition.y
      value: -0.19
      objectReference: {fileID: 0}
    - target: {fileID: 8266090407951456950, guid: b6d49af93046c6342ac6de8e7e259e46,
        type: 3}
      propertyPath: m_LocalPosition.z
      value: -0.22600251
      objectReference: {fileID: 0}
    - target: {fileID: 8266090407951456950, guid: b6d49af93046c6342ac6de8e7e259e46,
        type: 3}
      propertyPath: m_LocalRotation.x
      value: 0.000000021855694
      objectReference: {fileID: 0}
    - target: {fileID: 8266090407951456950, guid: b6d49af93046c6342ac6de8e7e259e46,
        type: 3}
      propertyPath: m_LocalRotation.y
      value: -0
      objectReference: {fileID: 0}
    - target: {fileID: 8266090407951456950, guid: b6d49af93046c6342ac6de8e7e259e46,
        type: 3}
      propertyPath: m_LocalRotation.z
      value: -0
      objectReference: {fileID: 0}
    - target: {fileID: 8266090407951456950, guid: b6d49af93046c6342ac6de8e7e259e46,
        type: 3}
      propertyPath: m_LocalRotation.w
      value: 1
      objectReference: {fileID: 0}
    - target: {fileID: 8266090407951456950, guid: b6d49af93046c6342ac6de8e7e259e46,
        type: 3}
      propertyPath: m_RootOrder
      value: 15
      objectReference: {fileID: 0}
    - target: {fileID: 8266090407951456950, guid: b6d49af93046c6342ac6de8e7e259e46,
        type: 3}
      propertyPath: m_LocalEulerAnglesHint.x
      value: 0
      objectReference: {fileID: 0}
    - target: {fileID: 8266090407951456950, guid: b6d49af93046c6342ac6de8e7e259e46,
        type: 3}
      propertyPath: m_LocalEulerAnglesHint.y
      value: 0
      objectReference: {fileID: 0}
    - target: {fileID: 8266090407951456950, guid: b6d49af93046c6342ac6de8e7e259e46,
        type: 3}
      propertyPath: m_LocalEulerAnglesHint.z
      value: 0
      objectReference: {fileID: 0}
    - target: {fileID: 8266090407951456950, guid: b6d49af93046c6342ac6de8e7e259e46,
        type: 3}
      propertyPath: m_LocalScale.x
      value: 0.58764
      objectReference: {fileID: 0}
    - target: {fileID: 8266090407951456950, guid: b6d49af93046c6342ac6de8e7e259e46,
        type: 3}
      propertyPath: m_LocalScale.y
      value: 0.58764
      objectReference: {fileID: 0}
    - target: {fileID: 8266090407951456950, guid: b6d49af93046c6342ac6de8e7e259e46,
        type: 3}
      propertyPath: m_LocalScale.z
      value: 0.58764
      objectReference: {fileID: 0}
    m_RemovedComponents: []
  m_SourcePrefab: {fileID: 100100000, guid: b6d49af93046c6342ac6de8e7e259e46, type: 3}
--- !u!4 &246055532 stripped
Transform:
  m_CorrespondingSourceObject: {fileID: 8266090407951456950, guid: b6d49af93046c6342ac6de8e7e259e46,
    type: 3}
  m_PrefabInstance: {fileID: 246055531}
  m_PrefabAsset: {fileID: 0}
--- !u!1 &515808552
GameObject:
  m_ObjectHideFlags: 0
  m_CorrespondingSourceObject: {fileID: 0}
  m_PrefabInstance: {fileID: 0}
  m_PrefabAsset: {fileID: 0}
  serializedVersion: 6
  m_Component:
  - component: {fileID: 515808553}
  - component: {fileID: 515808554}
  m_Layer: 0
  m_Name: Sky and Fog Volume
  m_TagString: Untagged
  m_Icon: {fileID: 0}
  m_NavMeshLayer: 0
  m_StaticEditorFlags: 0
  m_IsActive: 1
--- !u!4 &515808553
Transform:
  m_ObjectHideFlags: 0
  m_CorrespondingSourceObject: {fileID: 0}
  m_PrefabInstance: {fileID: 0}
  m_PrefabAsset: {fileID: 0}
  m_GameObject: {fileID: 515808552}
  m_LocalRotation: {x: 0, y: 0, z: 0, w: 1}
  m_LocalPosition: {x: 0, y: 0, z: 0}
  m_LocalScale: {x: 1, y: 1, z: 1}
  m_Children: []
  m_Father: {fileID: 174446703}
  m_RootOrder: 0
  m_LocalEulerAnglesHint: {x: 0, y: 0, z: 0}
--- !u!114 &515808554
MonoBehaviour:
  m_ObjectHideFlags: 0
  m_CorrespondingSourceObject: {fileID: 0}
  m_PrefabInstance: {fileID: 0}
  m_PrefabAsset: {fileID: 0}
  m_GameObject: {fileID: 515808552}
  m_Enabled: 1
  m_EditorHideFlags: 0
  m_Script: {fileID: 11500000, guid: 172515602e62fb746b5d573b38a5fe58, type: 3}
  m_Name: 
  m_EditorClassIdentifier: 
  isGlobal: 1
  priority: 0
  blendDistance: 0
  weight: 1
  sharedProfile: {fileID: 11400000, guid: d793b4cf98a18f541920d606303a6f01, type: 2}
--- !u!1001 &573737488
PrefabInstance:
  m_ObjectHideFlags: 0
  serializedVersion: 2
  m_Modification:
    m_TransformParent: {fileID: 1009527037}
    m_Modifications:
    - target: {fileID: 4966437632975513765, guid: b6d49af93046c6342ac6de8e7e259e46,
        type: 3}
      propertyPath: m_Name
      value: grass (13)
      objectReference: {fileID: 0}
    - target: {fileID: 8266090407951456950, guid: b6d49af93046c6342ac6de8e7e259e46,
        type: 3}
      propertyPath: m_LocalPosition.x
      value: 0.1440013
      objectReference: {fileID: 0}
    - target: {fileID: 8266090407951456950, guid: b6d49af93046c6342ac6de8e7e259e46,
        type: 3}
      propertyPath: m_LocalPosition.y
      value: -0.19
      objectReference: {fileID: 0}
    - target: {fileID: 8266090407951456950, guid: b6d49af93046c6342ac6de8e7e259e46,
        type: 3}
      propertyPath: m_LocalPosition.z
      value: -0.67600137
      objectReference: {fileID: 0}
    - target: {fileID: 8266090407951456950, guid: b6d49af93046c6342ac6de8e7e259e46,
        type: 3}
      propertyPath: m_LocalRotation.x
      value: 0.000000021855694
      objectReference: {fileID: 0}
    - target: {fileID: 8266090407951456950, guid: b6d49af93046c6342ac6de8e7e259e46,
        type: 3}
      propertyPath: m_LocalRotation.y
      value: -0
      objectReference: {fileID: 0}
    - target: {fileID: 8266090407951456950, guid: b6d49af93046c6342ac6de8e7e259e46,
        type: 3}
      propertyPath: m_LocalRotation.z
      value: -0
      objectReference: {fileID: 0}
    - target: {fileID: 8266090407951456950, guid: b6d49af93046c6342ac6de8e7e259e46,
        type: 3}
      propertyPath: m_LocalRotation.w
      value: 1
      objectReference: {fileID: 0}
    - target: {fileID: 8266090407951456950, guid: b6d49af93046c6342ac6de8e7e259e46,
        type: 3}
      propertyPath: m_RootOrder
      value: 12
      objectReference: {fileID: 0}
    - target: {fileID: 8266090407951456950, guid: b6d49af93046c6342ac6de8e7e259e46,
        type: 3}
      propertyPath: m_LocalEulerAnglesHint.x
      value: 0
      objectReference: {fileID: 0}
    - target: {fileID: 8266090407951456950, guid: b6d49af93046c6342ac6de8e7e259e46,
        type: 3}
      propertyPath: m_LocalEulerAnglesHint.y
      value: 0
      objectReference: {fileID: 0}
    - target: {fileID: 8266090407951456950, guid: b6d49af93046c6342ac6de8e7e259e46,
        type: 3}
      propertyPath: m_LocalEulerAnglesHint.z
      value: 0
      objectReference: {fileID: 0}
    - target: {fileID: 8266090407951456950, guid: b6d49af93046c6342ac6de8e7e259e46,
        type: 3}
      propertyPath: m_LocalScale.x
      value: 0.58764
      objectReference: {fileID: 0}
    - target: {fileID: 8266090407951456950, guid: b6d49af93046c6342ac6de8e7e259e46,
        type: 3}
      propertyPath: m_LocalScale.y
      value: 0.58764
      objectReference: {fileID: 0}
    - target: {fileID: 8266090407951456950, guid: b6d49af93046c6342ac6de8e7e259e46,
        type: 3}
      propertyPath: m_LocalScale.z
      value: 0.58764
      objectReference: {fileID: 0}
    m_RemovedComponents: []
  m_SourcePrefab: {fileID: 100100000, guid: b6d49af93046c6342ac6de8e7e259e46, type: 3}
--- !u!4 &573737489 stripped
Transform:
  m_CorrespondingSourceObject: {fileID: 8266090407951456950, guid: b6d49af93046c6342ac6de8e7e259e46,
    type: 3}
  m_PrefabInstance: {fileID: 573737488}
  m_PrefabAsset: {fileID: 0}
--- !u!1001 &583879437
PrefabInstance:
  m_ObjectHideFlags: 0
  serializedVersion: 2
  m_Modification:
    m_TransformParent: {fileID: 1009527037}
    m_Modifications:
    - target: {fileID: 4966437632975513765, guid: b6d49af93046c6342ac6de8e7e259e46,
        type: 3}
      propertyPath: m_Name
      value: grass (8)
      objectReference: {fileID: 0}
    - target: {fileID: 8266090407951456950, guid: b6d49af93046c6342ac6de8e7e259e46,
        type: 3}
      propertyPath: m_LocalPosition.x
      value: -0.65399903
      objectReference: {fileID: 0}
    - target: {fileID: 8266090407951456950, guid: b6d49af93046c6342ac6de8e7e259e46,
        type: 3}
      propertyPath: m_LocalPosition.y
      value: -0.19
      objectReference: {fileID: 0}
    - target: {fileID: 8266090407951456950, guid: b6d49af93046c6342ac6de8e7e259e46,
        type: 3}
      propertyPath: m_LocalPosition.z
      value: -0.41600114
      objectReference: {fileID: 0}
    - target: {fileID: 8266090407951456950, guid: b6d49af93046c6342ac6de8e7e259e46,
        type: 3}
      propertyPath: m_LocalRotation.x
      value: 0.000000021855694
      objectReference: {fileID: 0}
    - target: {fileID: 8266090407951456950, guid: b6d49af93046c6342ac6de8e7e259e46,
        type: 3}
      propertyPath: m_LocalRotation.y
      value: -0
      objectReference: {fileID: 0}
    - target: {fileID: 8266090407951456950, guid: b6d49af93046c6342ac6de8e7e259e46,
        type: 3}
      propertyPath: m_LocalRotation.z
      value: -0
      objectReference: {fileID: 0}
    - target: {fileID: 8266090407951456950, guid: b6d49af93046c6342ac6de8e7e259e46,
        type: 3}
      propertyPath: m_LocalRotation.w
      value: 1
      objectReference: {fileID: 0}
    - target: {fileID: 8266090407951456950, guid: b6d49af93046c6342ac6de8e7e259e46,
        type: 3}
      propertyPath: m_RootOrder
      value: 7
      objectReference: {fileID: 0}
    - target: {fileID: 8266090407951456950, guid: b6d49af93046c6342ac6de8e7e259e46,
        type: 3}
      propertyPath: m_LocalEulerAnglesHint.x
      value: 0
      objectReference: {fileID: 0}
    - target: {fileID: 8266090407951456950, guid: b6d49af93046c6342ac6de8e7e259e46,
        type: 3}
      propertyPath: m_LocalEulerAnglesHint.y
      value: 0
      objectReference: {fileID: 0}
    - target: {fileID: 8266090407951456950, guid: b6d49af93046c6342ac6de8e7e259e46,
        type: 3}
      propertyPath: m_LocalEulerAnglesHint.z
      value: 0
      objectReference: {fileID: 0}
    - target: {fileID: 8266090407951456950, guid: b6d49af93046c6342ac6de8e7e259e46,
        type: 3}
      propertyPath: m_LocalScale.x
      value: 0.58764
      objectReference: {fileID: 0}
    - target: {fileID: 8266090407951456950, guid: b6d49af93046c6342ac6de8e7e259e46,
        type: 3}
      propertyPath: m_LocalScale.y
      value: 0.58764
      objectReference: {fileID: 0}
    - target: {fileID: 8266090407951456950, guid: b6d49af93046c6342ac6de8e7e259e46,
        type: 3}
      propertyPath: m_LocalScale.z
      value: 0.58764
      objectReference: {fileID: 0}
    m_RemovedComponents: []
  m_SourcePrefab: {fileID: 100100000, guid: b6d49af93046c6342ac6de8e7e259e46, type: 3}
--- !u!4 &583879438 stripped
Transform:
  m_CorrespondingSourceObject: {fileID: 8266090407951456950, guid: b6d49af93046c6342ac6de8e7e259e46,
    type: 3}
  m_PrefabInstance: {fileID: 583879437}
  m_PrefabAsset: {fileID: 0}
--- !u!1001 &611059935
PrefabInstance:
  m_ObjectHideFlags: 0
  serializedVersion: 2
  m_Modification:
    m_TransformParent: {fileID: 1009527037}
    m_Modifications:
    - target: {fileID: 4966437632975513765, guid: b6d49af93046c6342ac6de8e7e259e46,
        type: 3}
      propertyPath: m_Name
      value: grass (5)
      objectReference: {fileID: 0}
    - target: {fileID: 8266090407951456950, guid: b6d49af93046c6342ac6de8e7e259e46,
        type: 3}
      propertyPath: m_LocalPosition.x
      value: -0.371
      objectReference: {fileID: 0}
    - target: {fileID: 8266090407951456950, guid: b6d49af93046c6342ac6de8e7e259e46,
        type: 3}
      propertyPath: m_LocalPosition.y
      value: -0.19
      objectReference: {fileID: 0}
    - target: {fileID: 8266090407951456950, guid: b6d49af93046c6342ac6de8e7e259e46,
        type: 3}
      propertyPath: m_LocalPosition.z
      value: -0.866
      objectReference: {fileID: 0}
    - target: {fileID: 8266090407951456950, guid: b6d49af93046c6342ac6de8e7e259e46,
        type: 3}
      propertyPath: m_LocalRotation.x
      value: 0.000000021855694
      objectReference: {fileID: 0}
    - target: {fileID: 8266090407951456950, guid: b6d49af93046c6342ac6de8e7e259e46,
        type: 3}
      propertyPath: m_LocalRotation.y
      value: -0
      objectReference: {fileID: 0}
    - target: {fileID: 8266090407951456950, guid: b6d49af93046c6342ac6de8e7e259e46,
        type: 3}
      propertyPath: m_LocalRotation.z
      value: -0
      objectReference: {fileID: 0}
    - target: {fileID: 8266090407951456950, guid: b6d49af93046c6342ac6de8e7e259e46,
        type: 3}
      propertyPath: m_LocalRotation.w
      value: 1
      objectReference: {fileID: 0}
    - target: {fileID: 8266090407951456950, guid: b6d49af93046c6342ac6de8e7e259e46,
        type: 3}
      propertyPath: m_RootOrder
      value: 4
      objectReference: {fileID: 0}
    - target: {fileID: 8266090407951456950, guid: b6d49af93046c6342ac6de8e7e259e46,
        type: 3}
      propertyPath: m_LocalEulerAnglesHint.x
      value: 0
      objectReference: {fileID: 0}
    - target: {fileID: 8266090407951456950, guid: b6d49af93046c6342ac6de8e7e259e46,
        type: 3}
      propertyPath: m_LocalEulerAnglesHint.y
      value: 0
      objectReference: {fileID: 0}
    - target: {fileID: 8266090407951456950, guid: b6d49af93046c6342ac6de8e7e259e46,
        type: 3}
      propertyPath: m_LocalEulerAnglesHint.z
      value: 0
      objectReference: {fileID: 0}
    - target: {fileID: 8266090407951456950, guid: b6d49af93046c6342ac6de8e7e259e46,
        type: 3}
      propertyPath: m_LocalScale.x
      value: 0.58764
      objectReference: {fileID: 0}
    - target: {fileID: 8266090407951456950, guid: b6d49af93046c6342ac6de8e7e259e46,
        type: 3}
      propertyPath: m_LocalScale.y
      value: 0.58764
      objectReference: {fileID: 0}
    - target: {fileID: 8266090407951456950, guid: b6d49af93046c6342ac6de8e7e259e46,
        type: 3}
      propertyPath: m_LocalScale.z
      value: 0.58764
      objectReference: {fileID: 0}
    m_RemovedComponents: []
  m_SourcePrefab: {fileID: 100100000, guid: b6d49af93046c6342ac6de8e7e259e46, type: 3}
--- !u!4 &611059936 stripped
Transform:
  m_CorrespondingSourceObject: {fileID: 8266090407951456950, guid: b6d49af93046c6342ac6de8e7e259e46,
    type: 3}
  m_PrefabInstance: {fileID: 611059935}
  m_PrefabAsset: {fileID: 0}
--- !u!1 &753367945
GameObject:
  m_ObjectHideFlags: 0
  m_CorrespondingSourceObject: {fileID: 0}
  m_PrefabInstance: {fileID: 0}
  m_PrefabAsset: {fileID: 0}
  serializedVersion: 6
  m_Component:
  - component: {fileID: 753367946}
  m_Layer: 0
  m_Name: Grading
  m_TagString: Untagged
  m_Icon: {fileID: 0}
  m_NavMeshLayer: 0
  m_StaticEditorFlags: 0
  m_IsActive: 1
--- !u!4 &753367946
Transform:
  m_ObjectHideFlags: 0
  m_CorrespondingSourceObject: {fileID: 0}
  m_PrefabInstance: {fileID: 0}
  m_PrefabAsset: {fileID: 0}
  m_GameObject: {fileID: 753367945}
  m_LocalRotation: {x: 0, y: 0, z: 0, w: 1}
  m_LocalPosition: {x: 33.06108, y: -4.681917, z: -16.989498}
  m_LocalScale: {x: 1, y: 1, z: 1}
  m_Children:
  - {fileID: 2043499222}
  - {fileID: 174446703}
  m_Father: {fileID: 0}
  m_RootOrder: 2
  m_LocalEulerAnglesHint: {x: 0, y: 0, z: 0}
--- !u!1 &1000095159
GameObject:
  m_ObjectHideFlags: 1
  m_CorrespondingSourceObject: {fileID: 0}
  m_PrefabInstance: {fileID: 0}
  m_PrefabAsset: {fileID: 0}
  serializedVersion: 6
  m_Component:
  - component: {fileID: 1000095161}
  - component: {fileID: 1000095160}
  m_Layer: 0
  m_Name: StaticLightingSky
  m_TagString: Untagged
  m_Icon: {fileID: 0}
  m_NavMeshLayer: 0
  m_StaticEditorFlags: 0
  m_IsActive: 1
--- !u!114 &1000095160
MonoBehaviour:
  m_ObjectHideFlags: 1
  m_CorrespondingSourceObject: {fileID: 0}
  m_PrefabInstance: {fileID: 0}
  m_PrefabAsset: {fileID: 0}
  m_GameObject: {fileID: 1000095159}
  m_Enabled: 1
  m_EditorHideFlags: 0
  m_Script: {fileID: 11500000, guid: 441482e8936e35048a1dffac814e3ef8, type: 3}
  m_Name: 
  m_EditorClassIdentifier: 
  m_Profile: {fileID: 11400000, guid: d793b4cf98a18f541920d606303a6f01, type: 2}
  m_StaticLightingSkyUniqueID: 4
  m_SkySettings: {fileID: 1925767251}
  m_SkySettingsFromProfile: {fileID: -7803489158920396428, guid: d793b4cf98a18f541920d606303a6f01,
    type: 2}
--- !u!4 &1000095161
Transform:
  m_ObjectHideFlags: 1
  m_CorrespondingSourceObject: {fileID: 0}
  m_PrefabInstance: {fileID: 0}
  m_PrefabAsset: {fileID: 0}
  m_GameObject: {fileID: 1000095159}
  m_LocalRotation: {x: 0, y: 0, z: 0, w: 1}
  m_LocalPosition: {x: 0, y: 0, z: 0}
  m_LocalScale: {x: 1, y: 1, z: 1}
  m_Children: []
  m_Father: {fileID: 0}
  m_RootOrder: 4
  m_LocalEulerAnglesHint: {x: 0, y: 0, z: 0}
--- !u!1 &1009527036
GameObject:
  m_ObjectHideFlags: 0
  m_CorrespondingSourceObject: {fileID: 0}
  m_PrefabInstance: {fileID: 0}
  m_PrefabAsset: {fileID: 0}
  serializedVersion: 6
  m_Component:
  - component: {fileID: 1009527037}
  m_Layer: 0
  m_Name: Stuff
  m_TagString: Untagged
  m_Icon: {fileID: 0}
  m_NavMeshLayer: 0
  m_StaticEditorFlags: 0
  m_IsActive: 1
--- !u!4 &1009527037
Transform:
  m_ObjectHideFlags: 0
  m_CorrespondingSourceObject: {fileID: 0}
  m_PrefabInstance: {fileID: 0}
  m_PrefabAsset: {fileID: 0}
  m_GameObject: {fileID: 1009527036}
  m_LocalRotation: {x: 0, y: 0, z: 0, w: 1}
  m_LocalPosition: {x: 21.28, y: 1.8, z: -23.86}
  m_LocalScale: {x: 1, y: 1, z: 1}
  m_Children:
  - {fileID: 1136757438}
  - {fileID: 1896185229}
  - {fileID: 231033986}
  - {fileID: 18749592}
  - {fileID: 611059936}
  - {fileID: 1942749253}
  - {fileID: 1474084139}
  - {fileID: 583879438}
  - {fileID: 1837406969}
  - {fileID: 2017291578}
  - {fileID: 239071026}
  - {fileID: 1664888250}
  - {fileID: 573737489}
  - {fileID: 1810924943}
  - {fileID: 1434947551}
  - {fileID: 246055532}
  m_Father: {fileID: 0}
  m_RootOrder: 3
  m_LocalEulerAnglesHint: {x: 0, y: 0, z: 0}
--- !u!1001 &1136757437
PrefabInstance:
  m_ObjectHideFlags: 0
  serializedVersion: 2
  m_Modification:
    m_TransformParent: {fileID: 1009527037}
    m_Modifications:
    - target: {fileID: 4966437632975513765, guid: b6d49af93046c6342ac6de8e7e259e46,
        type: 3}
      propertyPath: m_Name
      value: grass (1)
      objectReference: {fileID: 0}
    - target: {fileID: 8266090407951456950, guid: b6d49af93046c6342ac6de8e7e259e46,
        type: 3}
      propertyPath: m_LocalPosition.x
      value: -0.85
      objectReference: {fileID: 0}
    - target: {fileID: 8266090407951456950, guid: b6d49af93046c6342ac6de8e7e259e46,
        type: 3}
      propertyPath: m_LocalPosition.y
      value: -0.19
      objectReference: {fileID: 0}
    - target: {fileID: 8266090407951456950, guid: b6d49af93046c6342ac6de8e7e259e46,
        type: 3}
      propertyPath: m_LocalPosition.z
      value: -0.695
      objectReference: {fileID: 0}
    - target: {fileID: 8266090407951456950, guid: b6d49af93046c6342ac6de8e7e259e46,
        type: 3}
      propertyPath: m_LocalRotation.x
      value: 0.000000021855694
      objectReference: {fileID: 0}
    - target: {fileID: 8266090407951456950, guid: b6d49af93046c6342ac6de8e7e259e46,
        type: 3}
      propertyPath: m_LocalRotation.y
      value: -0
      objectReference: {fileID: 0}
    - target: {fileID: 8266090407951456950, guid: b6d49af93046c6342ac6de8e7e259e46,
        type: 3}
      propertyPath: m_LocalRotation.z
      value: -0
      objectReference: {fileID: 0}
    - target: {fileID: 8266090407951456950, guid: b6d49af93046c6342ac6de8e7e259e46,
        type: 3}
      propertyPath: m_LocalRotation.w
      value: 1
      objectReference: {fileID: 0}
    - target: {fileID: 8266090407951456950, guid: b6d49af93046c6342ac6de8e7e259e46,
        type: 3}
      propertyPath: m_RootOrder
      value: 0
      objectReference: {fileID: 0}
    - target: {fileID: 8266090407951456950, guid: b6d49af93046c6342ac6de8e7e259e46,
        type: 3}
      propertyPath: m_LocalEulerAnglesHint.x
      value: 0
      objectReference: {fileID: 0}
    - target: {fileID: 8266090407951456950, guid: b6d49af93046c6342ac6de8e7e259e46,
        type: 3}
      propertyPath: m_LocalEulerAnglesHint.y
      value: 0
      objectReference: {fileID: 0}
    - target: {fileID: 8266090407951456950, guid: b6d49af93046c6342ac6de8e7e259e46,
        type: 3}
      propertyPath: m_LocalEulerAnglesHint.z
      value: 0
      objectReference: {fileID: 0}
    - target: {fileID: 8266090407951456950, guid: b6d49af93046c6342ac6de8e7e259e46,
        type: 3}
      propertyPath: m_LocalScale.x
      value: 0.58764
      objectReference: {fileID: 0}
    - target: {fileID: 8266090407951456950, guid: b6d49af93046c6342ac6de8e7e259e46,
        type: 3}
      propertyPath: m_LocalScale.y
      value: 0.58764
      objectReference: {fileID: 0}
    - target: {fileID: 8266090407951456950, guid: b6d49af93046c6342ac6de8e7e259e46,
        type: 3}
      propertyPath: m_LocalScale.z
      value: 0.58764
      objectReference: {fileID: 0}
    m_RemovedComponents: []
  m_SourcePrefab: {fileID: 100100000, guid: b6d49af93046c6342ac6de8e7e259e46, type: 3}
--- !u!4 &1136757438 stripped
Transform:
  m_CorrespondingSourceObject: {fileID: 8266090407951456950, guid: b6d49af93046c6342ac6de8e7e259e46,
    type: 3}
  m_PrefabInstance: {fileID: 1136757437}
  m_PrefabAsset: {fileID: 0}
--- !u!1001 &1434947550
PrefabInstance:
  m_ObjectHideFlags: 0
  serializedVersion: 2
  m_Modification:
    m_TransformParent: {fileID: 1009527037}
    m_Modifications:
    - target: {fileID: 4966437632975513765, guid: b6d49af93046c6342ac6de8e7e259e46,
        type: 3}
      propertyPath: m_Name
      value: grass (15)
      objectReference: {fileID: 0}
    - target: {fileID: 8266090407951456950, guid: b6d49af93046c6342ac6de8e7e259e46,
        type: 3}
      propertyPath: m_LocalPosition.x
      value: -0.39999735
      objectReference: {fileID: 0}
    - target: {fileID: 8266090407951456950, guid: b6d49af93046c6342ac6de8e7e259e46,
        type: 3}
      propertyPath: m_LocalPosition.y
      value: -0.19
      objectReference: {fileID: 0}
    - target: {fileID: 8266090407951456950, guid: b6d49af93046c6342ac6de8e7e259e46,
        type: 3}
      propertyPath: m_LocalPosition.z
      value: -0.08200103
      objectReference: {fileID: 0}
    - target: {fileID: 8266090407951456950, guid: b6d49af93046c6342ac6de8e7e259e46,
        type: 3}
      propertyPath: m_LocalRotation.x
      value: 0.000000021855694
      objectReference: {fileID: 0}
    - target: {fileID: 8266090407951456950, guid: b6d49af93046c6342ac6de8e7e259e46,
        type: 3}
      propertyPath: m_LocalRotation.y
      value: -0
      objectReference: {fileID: 0}
    - target: {fileID: 8266090407951456950, guid: b6d49af93046c6342ac6de8e7e259e46,
        type: 3}
      propertyPath: m_LocalRotation.z
      value: -0
      objectReference: {fileID: 0}
    - target: {fileID: 8266090407951456950, guid: b6d49af93046c6342ac6de8e7e259e46,
        type: 3}
      propertyPath: m_LocalRotation.w
      value: 1
      objectReference: {fileID: 0}
    - target: {fileID: 8266090407951456950, guid: b6d49af93046c6342ac6de8e7e259e46,
        type: 3}
      propertyPath: m_RootOrder
      value: 14
      objectReference: {fileID: 0}
    - target: {fileID: 8266090407951456950, guid: b6d49af93046c6342ac6de8e7e259e46,
        type: 3}
      propertyPath: m_LocalEulerAnglesHint.x
      value: 0
      objectReference: {fileID: 0}
    - target: {fileID: 8266090407951456950, guid: b6d49af93046c6342ac6de8e7e259e46,
        type: 3}
      propertyPath: m_LocalEulerAnglesHint.y
      value: 0
      objectReference: {fileID: 0}
    - target: {fileID: 8266090407951456950, guid: b6d49af93046c6342ac6de8e7e259e46,
        type: 3}
      propertyPath: m_LocalEulerAnglesHint.z
      value: 0
      objectReference: {fileID: 0}
    - target: {fileID: 8266090407951456950, guid: b6d49af93046c6342ac6de8e7e259e46,
        type: 3}
      propertyPath: m_LocalScale.x
      value: 0.58764
      objectReference: {fileID: 0}
    - target: {fileID: 8266090407951456950, guid: b6d49af93046c6342ac6de8e7e259e46,
        type: 3}
      propertyPath: m_LocalScale.y
      value: 0.58764
      objectReference: {fileID: 0}
    - target: {fileID: 8266090407951456950, guid: b6d49af93046c6342ac6de8e7e259e46,
        type: 3}
      propertyPath: m_LocalScale.z
      value: 0.58764
      objectReference: {fileID: 0}
    m_RemovedComponents: []
  m_SourcePrefab: {fileID: 100100000, guid: b6d49af93046c6342ac6de8e7e259e46, type: 3}
--- !u!4 &1434947551 stripped
Transform:
  m_CorrespondingSourceObject: {fileID: 8266090407951456950, guid: b6d49af93046c6342ac6de8e7e259e46,
    type: 3}
  m_PrefabInstance: {fileID: 1434947550}
  m_PrefabAsset: {fileID: 0}
--- !u!1001 &1474084138
PrefabInstance:
  m_ObjectHideFlags: 0
  serializedVersion: 2
  m_Modification:
    m_TransformParent: {fileID: 1009527037}
    m_Modifications:
    - target: {fileID: 4966437632975513765, guid: b6d49af93046c6342ac6de8e7e259e46,
        type: 3}
      propertyPath: m_Name
      value: grass (7)
      objectReference: {fileID: 0}
    - target: {fileID: 8266090407951456950, guid: b6d49af93046c6342ac6de8e7e259e46,
        type: 3}
      propertyPath: m_LocalPosition.x
      value: -0.91499865
      objectReference: {fileID: 0}
    - target: {fileID: 8266090407951456950, guid: b6d49af93046c6342ac6de8e7e259e46,
        type: 3}
      propertyPath: m_LocalPosition.y
      value: -0.19
      objectReference: {fileID: 0}
    - target: {fileID: 8266090407951456950, guid: b6d49af93046c6342ac6de8e7e259e46,
        type: 3}
      propertyPath: m_LocalPosition.z
      value: -0.27199966
      objectReference: {fileID: 0}
    - target: {fileID: 8266090407951456950, guid: b6d49af93046c6342ac6de8e7e259e46,
        type: 3}
      propertyPath: m_LocalRotation.x
      value: 0.000000021855694
      objectReference: {fileID: 0}
    - target: {fileID: 8266090407951456950, guid: b6d49af93046c6342ac6de8e7e259e46,
        type: 3}
      propertyPath: m_LocalRotation.y
      value: -0
      objectReference: {fileID: 0}
    - target: {fileID: 8266090407951456950, guid: b6d49af93046c6342ac6de8e7e259e46,
        type: 3}
      propertyPath: m_LocalRotation.z
      value: -0
      objectReference: {fileID: 0}
    - target: {fileID: 8266090407951456950, guid: b6d49af93046c6342ac6de8e7e259e46,
        type: 3}
      propertyPath: m_LocalRotation.w
      value: 1
      objectReference: {fileID: 0}
    - target: {fileID: 8266090407951456950, guid: b6d49af93046c6342ac6de8e7e259e46,
        type: 3}
      propertyPath: m_RootOrder
      value: 6
      objectReference: {fileID: 0}
    - target: {fileID: 8266090407951456950, guid: b6d49af93046c6342ac6de8e7e259e46,
        type: 3}
      propertyPath: m_LocalEulerAnglesHint.x
      value: 0
      objectReference: {fileID: 0}
    - target: {fileID: 8266090407951456950, guid: b6d49af93046c6342ac6de8e7e259e46,
        type: 3}
      propertyPath: m_LocalEulerAnglesHint.y
      value: 0
      objectReference: {fileID: 0}
    - target: {fileID: 8266090407951456950, guid: b6d49af93046c6342ac6de8e7e259e46,
        type: 3}
      propertyPath: m_LocalEulerAnglesHint.z
      value: 0
      objectReference: {fileID: 0}
    - target: {fileID: 8266090407951456950, guid: b6d49af93046c6342ac6de8e7e259e46,
        type: 3}
      propertyPath: m_LocalScale.x
      value: 0.58764
      objectReference: {fileID: 0}
    - target: {fileID: 8266090407951456950, guid: b6d49af93046c6342ac6de8e7e259e46,
        type: 3}
      propertyPath: m_LocalScale.y
      value: 0.58764
      objectReference: {fileID: 0}
    - target: {fileID: 8266090407951456950, guid: b6d49af93046c6342ac6de8e7e259e46,
        type: 3}
      propertyPath: m_LocalScale.z
      value: 0.58764
      objectReference: {fileID: 0}
    m_RemovedComponents: []
  m_SourcePrefab: {fileID: 100100000, guid: b6d49af93046c6342ac6de8e7e259e46, type: 3}
--- !u!4 &1474084139 stripped
Transform:
  m_CorrespondingSourceObject: {fileID: 8266090407951456950, guid: b6d49af93046c6342ac6de8e7e259e46,
    type: 3}
  m_PrefabInstance: {fileID: 1474084138}
  m_PrefabAsset: {fileID: 0}
--- !u!1001 &1664888249
PrefabInstance:
  m_ObjectHideFlags: 0
  serializedVersion: 2
  m_Modification:
    m_TransformParent: {fileID: 1009527037}
    m_Modifications:
    - target: {fileID: 4966437632975513765, guid: b6d49af93046c6342ac6de8e7e259e46,
        type: 3}
      propertyPath: m_Name
      value: grass (12)
      objectReference: {fileID: 0}
    - target: {fileID: 8266090407951456950, guid: b6d49af93046c6342ac6de8e7e259e46,
        type: 3}
      propertyPath: m_LocalPosition.x
      value: -0.116998315
      objectReference: {fileID: 0}
    - target: {fileID: 8266090407951456950, guid: b6d49af93046c6342ac6de8e7e259e46,
        type: 3}
      propertyPath: m_LocalPosition.y
      value: -0.19
      objectReference: {fileID: 0}
    - target: {fileID: 8266090407951456950, guid: b6d49af93046c6342ac6de8e7e259e46,
        type: 3}
      propertyPath: m_LocalPosition.z
      value: 6.9299984
      objectReference: {fileID: 0}
    - target: {fileID: 8266090407951456950, guid: b6d49af93046c6342ac6de8e7e259e46,
        type: 3}
      propertyPath: m_LocalRotation.x
      value: 0.000000021855694
      objectReference: {fileID: 0}
    - target: {fileID: 8266090407951456950, guid: b6d49af93046c6342ac6de8e7e259e46,
        type: 3}
      propertyPath: m_LocalRotation.y
      value: -0
      objectReference: {fileID: 0}
    - target: {fileID: 8266090407951456950, guid: b6d49af93046c6342ac6de8e7e259e46,
        type: 3}
      propertyPath: m_LocalRotation.z
      value: -0
      objectReference: {fileID: 0}
    - target: {fileID: 8266090407951456950, guid: b6d49af93046c6342ac6de8e7e259e46,
        type: 3}
      propertyPath: m_LocalRotation.w
      value: 1
      objectReference: {fileID: 0}
    - target: {fileID: 8266090407951456950, guid: b6d49af93046c6342ac6de8e7e259e46,
        type: 3}
      propertyPath: m_RootOrder
      value: 11
      objectReference: {fileID: 0}
    - target: {fileID: 8266090407951456950, guid: b6d49af93046c6342ac6de8e7e259e46,
        type: 3}
      propertyPath: m_LocalEulerAnglesHint.x
      value: 0
      objectReference: {fileID: 0}
    - target: {fileID: 8266090407951456950, guid: b6d49af93046c6342ac6de8e7e259e46,
        type: 3}
      propertyPath: m_LocalEulerAnglesHint.y
      value: 0
      objectReference: {fileID: 0}
    - target: {fileID: 8266090407951456950, guid: b6d49af93046c6342ac6de8e7e259e46,
        type: 3}
      propertyPath: m_LocalEulerAnglesHint.z
      value: 0
      objectReference: {fileID: 0}
    - target: {fileID: 8266090407951456950, guid: b6d49af93046c6342ac6de8e7e259e46,
        type: 3}
      propertyPath: m_LocalScale.x
      value: 0.58764
      objectReference: {fileID: 0}
    - target: {fileID: 8266090407951456950, guid: b6d49af93046c6342ac6de8e7e259e46,
        type: 3}
      propertyPath: m_LocalScale.y
      value: 0.58764
      objectReference: {fileID: 0}
    - target: {fileID: 8266090407951456950, guid: b6d49af93046c6342ac6de8e7e259e46,
        type: 3}
      propertyPath: m_LocalScale.z
      value: 0.58764
      objectReference: {fileID: 0}
    m_RemovedComponents: []
  m_SourcePrefab: {fileID: 100100000, guid: b6d49af93046c6342ac6de8e7e259e46, type: 3}
--- !u!4 &1664888250 stripped
Transform:
  m_CorrespondingSourceObject: {fileID: 8266090407951456950, guid: b6d49af93046c6342ac6de8e7e259e46,
    type: 3}
  m_PrefabInstance: {fileID: 1664888249}
  m_PrefabAsset: {fileID: 0}
--- !u!1001 &1810924942
PrefabInstance:
  m_ObjectHideFlags: 0
  serializedVersion: 2
  m_Modification:
    m_TransformParent: {fileID: 1009527037}
    m_Modifications:
    - target: {fileID: 4966437632975513765, guid: b6d49af93046c6342ac6de8e7e259e46,
        type: 3}
      propertyPath: m_Name
      value: grass (14)
      objectReference: {fileID: 0}
    - target: {fileID: 8266090407951456950, guid: b6d49af93046c6342ac6de8e7e259e46,
        type: 3}
      propertyPath: m_LocalPosition.x
      value: -0.3329987
      objectReference: {fileID: 0}
    - target: {fileID: 8266090407951456950, guid: b6d49af93046c6342ac6de8e7e259e46,
        type: 3}
      propertyPath: m_LocalPosition.y
      value: -0.19
      objectReference: {fileID: 0}
    - target: {fileID: 8266090407951456950, guid: b6d49af93046c6342ac6de8e7e259e46,
        type: 3}
      propertyPath: m_LocalPosition.z
      value: -0.32000136
      objectReference: {fileID: 0}
    - target: {fileID: 8266090407951456950, guid: b6d49af93046c6342ac6de8e7e259e46,
        type: 3}
      propertyPath: m_LocalRotation.x
      value: 0.000000021855694
      objectReference: {fileID: 0}
    - target: {fileID: 8266090407951456950, guid: b6d49af93046c6342ac6de8e7e259e46,
        type: 3}
      propertyPath: m_LocalRotation.y
      value: -0
      objectReference: {fileID: 0}
    - target: {fileID: 8266090407951456950, guid: b6d49af93046c6342ac6de8e7e259e46,
        type: 3}
      propertyPath: m_LocalRotation.z
      value: -0
      objectReference: {fileID: 0}
    - target: {fileID: 8266090407951456950, guid: b6d49af93046c6342ac6de8e7e259e46,
        type: 3}
      propertyPath: m_LocalRotation.w
      value: 1
      objectReference: {fileID: 0}
    - target: {fileID: 8266090407951456950, guid: b6d49af93046c6342ac6de8e7e259e46,
        type: 3}
      propertyPath: m_RootOrder
      value: 13
      objectReference: {fileID: 0}
    - target: {fileID: 8266090407951456950, guid: b6d49af93046c6342ac6de8e7e259e46,
        type: 3}
      propertyPath: m_LocalEulerAnglesHint.x
      value: 0
      objectReference: {fileID: 0}
    - target: {fileID: 8266090407951456950, guid: b6d49af93046c6342ac6de8e7e259e46,
        type: 3}
      propertyPath: m_LocalEulerAnglesHint.y
      value: 0
      objectReference: {fileID: 0}
    - target: {fileID: 8266090407951456950, guid: b6d49af93046c6342ac6de8e7e259e46,
        type: 3}
      propertyPath: m_LocalEulerAnglesHint.z
      value: 0
      objectReference: {fileID: 0}
    - target: {fileID: 8266090407951456950, guid: b6d49af93046c6342ac6de8e7e259e46,
        type: 3}
      propertyPath: m_LocalScale.x
      value: 0.58764
      objectReference: {fileID: 0}
    - target: {fileID: 8266090407951456950, guid: b6d49af93046c6342ac6de8e7e259e46,
        type: 3}
      propertyPath: m_LocalScale.y
      value: 0.58764
      objectReference: {fileID: 0}
    - target: {fileID: 8266090407951456950, guid: b6d49af93046c6342ac6de8e7e259e46,
        type: 3}
      propertyPath: m_LocalScale.z
      value: 0.58764
      objectReference: {fileID: 0}
    m_RemovedComponents: []
  m_SourcePrefab: {fileID: 100100000, guid: b6d49af93046c6342ac6de8e7e259e46, type: 3}
--- !u!4 &1810924943 stripped
Transform:
  m_CorrespondingSourceObject: {fileID: 8266090407951456950, guid: b6d49af93046c6342ac6de8e7e259e46,
    type: 3}
  m_PrefabInstance: {fileID: 1810924942}
  m_PrefabAsset: {fileID: 0}
--- !u!1001 &1837406968
PrefabInstance:
  m_ObjectHideFlags: 0
  serializedVersion: 2
  m_Modification:
    m_TransformParent: {fileID: 1009527037}
    m_Modifications:
    - target: {fileID: 4966437632975513765, guid: b6d49af93046c6342ac6de8e7e259e46,
        type: 3}
      propertyPath: m_Name
      value: grass (9)
      objectReference: {fileID: 0}
    - target: {fileID: 8266090407951456950, guid: b6d49af93046c6342ac6de8e7e259e46,
        type: 3}
      propertyPath: m_LocalPosition.x
      value: -0.33499873
      objectReference: {fileID: 0}
    - target: {fileID: 8266090407951456950, guid: b6d49af93046c6342ac6de8e7e259e46,
        type: 3}
      propertyPath: m_LocalPosition.y
      value: -0.19
      objectReference: {fileID: 0}
    - target: {fileID: 8266090407951456950, guid: b6d49af93046c6342ac6de8e7e259e46,
        type: 3}
      propertyPath: m_LocalPosition.z
      value: -0.50500137
      objectReference: {fileID: 0}
    - target: {fileID: 8266090407951456950, guid: b6d49af93046c6342ac6de8e7e259e46,
        type: 3}
      propertyPath: m_LocalRotation.x
      value: 0.000000021855694
      objectReference: {fileID: 0}
    - target: {fileID: 8266090407951456950, guid: b6d49af93046c6342ac6de8e7e259e46,
        type: 3}
      propertyPath: m_LocalRotation.y
      value: -0
      objectReference: {fileID: 0}
    - target: {fileID: 8266090407951456950, guid: b6d49af93046c6342ac6de8e7e259e46,
        type: 3}
      propertyPath: m_LocalRotation.z
      value: -0
      objectReference: {fileID: 0}
    - target: {fileID: 8266090407951456950, guid: b6d49af93046c6342ac6de8e7e259e46,
        type: 3}
      propertyPath: m_LocalRotation.w
      value: 1
      objectReference: {fileID: 0}
    - target: {fileID: 8266090407951456950, guid: b6d49af93046c6342ac6de8e7e259e46,
        type: 3}
      propertyPath: m_RootOrder
      value: 8
      objectReference: {fileID: 0}
    - target: {fileID: 8266090407951456950, guid: b6d49af93046c6342ac6de8e7e259e46,
        type: 3}
      propertyPath: m_LocalEulerAnglesHint.x
      value: 0
      objectReference: {fileID: 0}
    - target: {fileID: 8266090407951456950, guid: b6d49af93046c6342ac6de8e7e259e46,
        type: 3}
      propertyPath: m_LocalEulerAnglesHint.y
      value: 0
      objectReference: {fileID: 0}
    - target: {fileID: 8266090407951456950, guid: b6d49af93046c6342ac6de8e7e259e46,
        type: 3}
      propertyPath: m_LocalEulerAnglesHint.z
      value: 0
      objectReference: {fileID: 0}
    - target: {fileID: 8266090407951456950, guid: b6d49af93046c6342ac6de8e7e259e46,
        type: 3}
      propertyPath: m_LocalScale.x
      value: 0.58764
      objectReference: {fileID: 0}
    - target: {fileID: 8266090407951456950, guid: b6d49af93046c6342ac6de8e7e259e46,
        type: 3}
      propertyPath: m_LocalScale.y
      value: 0.58764
      objectReference: {fileID: 0}
    - target: {fileID: 8266090407951456950, guid: b6d49af93046c6342ac6de8e7e259e46,
        type: 3}
      propertyPath: m_LocalScale.z
      value: 0.58764
      objectReference: {fileID: 0}
    m_RemovedComponents: []
  m_SourcePrefab: {fileID: 100100000, guid: b6d49af93046c6342ac6de8e7e259e46, type: 3}
--- !u!4 &1837406969 stripped
Transform:
  m_CorrespondingSourceObject: {fileID: 8266090407951456950, guid: b6d49af93046c6342ac6de8e7e259e46,
    type: 3}
  m_PrefabInstance: {fileID: 1837406968}
  m_PrefabAsset: {fileID: 0}
--- !u!1 &1851038796
GameObject:
  m_ObjectHideFlags: 0
  m_CorrespondingSourceObject: {fileID: 0}
  m_PrefabInstance: {fileID: 0}
  m_PrefabAsset: {fileID: 0}
  serializedVersion: 6
  m_Component:
  - component: {fileID: 1851038798}
  - component: {fileID: 1851038797}
  - component: {fileID: 1851038799}
  m_Layer: 0
  m_Name: Directional Light
  m_TagString: Untagged
  m_Icon: {fileID: 0}
  m_NavMeshLayer: 0
  m_StaticEditorFlags: 0
  m_IsActive: 1
--- !u!108 &1851038797
Light:
  m_ObjectHideFlags: 0
  m_CorrespondingSourceObject: {fileID: 0}
  m_PrefabInstance: {fileID: 0}
  m_PrefabAsset: {fileID: 0}
  m_GameObject: {fileID: 1851038796}
  m_Enabled: 1
  serializedVersion: 10
  m_Type: 1
  m_Shape: 0
  m_Color: {r: 0.9852941, g: 0.9748016, b: 0.9635597, a: 1}
  m_Intensity: 10000
  m_Range: 10
  m_SpotAngle: 30
  m_InnerSpotAngle: 21.80208
  m_CookieSize: 10
  m_Shadows:
    m_Type: 2
    m_Resolution: -1
    m_CustomResolution: -1
    m_Strength: 1
    m_Bias: 0.05
    m_NormalBias: 0.4
    m_NearPlane: 0.2
    m_CullingMatrixOverride:
      e00: 1
      e01: 0
      e02: 0
      e03: 0
      e10: 0
      e11: 1
      e12: 0
      e13: 0
      e20: 0
      e21: 0
      e22: 1
      e23: 0
      e30: 0
      e31: 0
      e32: 0
      e33: 1
    m_UseCullingMatrixOverride: 0
  m_Cookie: {fileID: 0}
  m_DrawHalo: 0
  m_Flare: {fileID: 0}
  m_RenderMode: 0
  m_CullingMask:
    serializedVersion: 2
    m_Bits: 4294967295
  m_RenderingLayerMask: 1
  m_Lightmapping: 1
  m_LightShadowCasterMode: 2
  m_AreaSize: {x: 1, y: 1}
  m_BounceIntensity: 1
  m_ColorTemperature: 5500
  m_UseColorTemperature: 1
  m_BoundingSphereOverride: {x: 0, y: 0, z: 0, w: 0}
  m_UseBoundingSphereOverride: 0
  m_ShadowRadius: 0
  m_ShadowAngle: 2
--- !u!4 &1851038798
Transform:
  m_ObjectHideFlags: 0
  m_CorrespondingSourceObject: {fileID: 0}
  m_PrefabInstance: {fileID: 0}
  m_PrefabAsset: {fileID: 0}
  m_GameObject: {fileID: 1851038796}
  m_LocalRotation: {x: 0.40574023, y: 0.40224957, z: -0.20539872, w: 0.7945952}
  m_LocalPosition: {x: 15.05, y: 3, z: -7.17}
  m_LocalScale: {x: 1, y: 1, z: 1}
  m_Children: []
  m_Father: {fileID: 0}
  m_RootOrder: 0
  m_LocalEulerAnglesHint: {x: 54.1, y: 53.7, z: 0}
--- !u!114 &1851038799
MonoBehaviour:
  m_ObjectHideFlags: 0
  m_CorrespondingSourceObject: {fileID: 0}
  m_PrefabInstance: {fileID: 0}
  m_PrefabAsset: {fileID: 0}
  m_GameObject: {fileID: 1851038796}
  m_Enabled: 1
  m_EditorHideFlags: 0
  m_Script: {fileID: 11500000, guid: 7a68c43fe1f2a47cfa234b5eeaa98012, type: 3}
  m_Name: 
  m_EditorClassIdentifier: 
  m_Version: 10
  m_ObsoleteShadowResolutionTier: 1
  m_ObsoleteUseShadowQualitySettings: 0
  m_ObsoleteCustomShadowResolution: 512
  m_ObsoleteContactShadows: 0
  m_PointlightHDType: 0
  m_SpotLightShape: 0
  m_AreaLightShape: 0
  m_Intensity: 10000
  m_EnableSpotReflector: 0
  m_LuxAtDistance: 1
  m_InnerSpotPercent: 0
  m_LightDimmer: 1
  m_VolumetricDimmer: 1
  m_LightUnit: 2
  m_FadeDistance: 10000
  m_AffectDiffuse: 1
  m_AffectSpecular: 1
  m_NonLightmappedOnly: 0
  m_ShapeWidth: 0.5
  m_ShapeHeight: 0.5
  m_AspectRatio: 1
  m_ShapeRadius: 0.025
  m_SoftnessScale: 1
  m_UseCustomSpotLightShadowCone: 0
  m_CustomSpotLightShadowCone: 30
  m_MaxSmoothness: 0.99
  m_ApplyRangeAttenuation: 1
  m_DisplayAreaLightEmissiveMesh: 0
  m_AreaLightCookie: {fileID: 0}
  m_AreaLightShadowCone: 120
  m_UseScreenSpaceShadows: 0
  m_InteractsWithSky: 1
  m_AngularDiameter: 0.5
  m_FlareSize: 2
  m_FlareTint: {r: 1, g: 1, b: 1, a: 1}
  m_FlareFalloff: 4
  m_SurfaceTexture: {fileID: 0}
  m_SurfaceTint: {r: 1, g: 1, b: 1, a: 1}
  m_Distance: 1.5e+11
  m_UseRayTracedShadows: 0
  m_NumRayTracingSamples: 4
  m_FilterTracedShadow: 1
  m_FilterSizeTraced: 16
  m_SunLightConeAngle: 0.5
  m_LightShadowRadius: 0.5
  m_SemiTransparentShadow: 0
  m_ColorShadow: 1
  m_EvsmExponent: 15
  m_EvsmLightLeakBias: 0
  m_EvsmVarianceBias: 0.00001
  m_EvsmBlurPasses: 0
  m_LightlayersMask: 1
  m_LinkShadowLayers: 1
  m_ShadowNearPlane: 0.1
  m_BlockerSampleCount: 24
  m_FilterSampleCount: 16
  m_MinFilterSize: 0.1
  m_KernelSize: 5
  m_LightAngle: 1
  m_MaxDepthBias: 0.001
  m_ShadowResolution:
    m_Override: 512
    m_UseOverride: 1
    m_Level: 0
  m_ShadowDimmer: 1
  m_VolumetricShadowDimmer: 1
  m_ShadowFadeDistance: 10000
  m_UseContactShadow:
    m_Override: 0
    m_UseOverride: 1
    m_Level: 0
  m_RayTracedContactShadow: 0
  m_ShadowTint: {r: 0, g: 0, b: 0, a: 1}
  m_PenumbraTint: 0
  m_NormalBias: 0.75
  m_SlopeBias: 0.5
  m_ShadowUpdateMode: 0
  m_BarnDoorAngle: 90
  m_BarnDoorLength: 0.05
  m_ShadowCascadeRatios:
  - 0.05
  - 0.2
  - 0.3
  m_ShadowCascadeBorders:
  - 0.2
  - 0.2
  - 0.2
  - 0.2
  m_ShadowAlgorithm: 0
  m_ShadowVariant: 0
  m_ShadowPrecision: 0
  useOldInspector: 0
  useVolumetric: 1
  featuresFoldout: 1
  showAdditionalSettings: 0
  m_AreaLightEmissiveMeshShadowCastingMode: 0
  m_AreaLightEmissiveMeshMotionVectorGenerationMode: 0
--- !u!1001 &1896185228
PrefabInstance:
  m_ObjectHideFlags: 0
  serializedVersion: 2
  m_Modification:
    m_TransformParent: {fileID: 1009527037}
    m_Modifications:
    - target: {fileID: 4966437632975513765, guid: b6d49af93046c6342ac6de8e7e259e46,
        type: 3}
      propertyPath: m_Name
      value: grass (2)
      objectReference: {fileID: 0}
    - target: {fileID: 8266090407951456950, guid: b6d49af93046c6342ac6de8e7e259e46,
        type: 3}
      propertyPath: m_LocalPosition.x
      value: -0.589
      objectReference: {fileID: 0}
    - target: {fileID: 8266090407951456950, guid: b6d49af93046c6342ac6de8e7e259e46,
        type: 3}
      propertyPath: m_LocalPosition.y
      value: -0.19
      objectReference: {fileID: 0}
    - target: {fileID: 8266090407951456950, guid: b6d49af93046c6342ac6de8e7e259e46,
        type: 3}
      propertyPath: m_LocalPosition.z
      value: -0.839
      objectReference: {fileID: 0}
    - target: {fileID: 8266090407951456950, guid: b6d49af93046c6342ac6de8e7e259e46,
        type: 3}
      propertyPath: m_LocalRotation.x
      value: 0.000000021855694
      objectReference: {fileID: 0}
    - target: {fileID: 8266090407951456950, guid: b6d49af93046c6342ac6de8e7e259e46,
        type: 3}
      propertyPath: m_LocalRotation.y
      value: -0
      objectReference: {fileID: 0}
    - target: {fileID: 8266090407951456950, guid: b6d49af93046c6342ac6de8e7e259e46,
        type: 3}
      propertyPath: m_LocalRotation.z
      value: -0
      objectReference: {fileID: 0}
    - target: {fileID: 8266090407951456950, guid: b6d49af93046c6342ac6de8e7e259e46,
        type: 3}
      propertyPath: m_LocalRotation.w
      value: 1
      objectReference: {fileID: 0}
    - target: {fileID: 8266090407951456950, guid: b6d49af93046c6342ac6de8e7e259e46,
        type: 3}
      propertyPath: m_RootOrder
      value: 1
      objectReference: {fileID: 0}
    - target: {fileID: 8266090407951456950, guid: b6d49af93046c6342ac6de8e7e259e46,
        type: 3}
      propertyPath: m_LocalEulerAnglesHint.x
      value: 0
      objectReference: {fileID: 0}
    - target: {fileID: 8266090407951456950, guid: b6d49af93046c6342ac6de8e7e259e46,
        type: 3}
      propertyPath: m_LocalEulerAnglesHint.y
      value: 0
      objectReference: {fileID: 0}
    - target: {fileID: 8266090407951456950, guid: b6d49af93046c6342ac6de8e7e259e46,
        type: 3}
      propertyPath: m_LocalEulerAnglesHint.z
      value: 0
      objectReference: {fileID: 0}
    - target: {fileID: 8266090407951456950, guid: b6d49af93046c6342ac6de8e7e259e46,
        type: 3}
      propertyPath: m_LocalScale.x
      value: 0.58764
      objectReference: {fileID: 0}
    - target: {fileID: 8266090407951456950, guid: b6d49af93046c6342ac6de8e7e259e46,
        type: 3}
      propertyPath: m_LocalScale.y
      value: 0.58764
      objectReference: {fileID: 0}
    - target: {fileID: 8266090407951456950, guid: b6d49af93046c6342ac6de8e7e259e46,
        type: 3}
      propertyPath: m_LocalScale.z
      value: 0.58764
      objectReference: {fileID: 0}
    m_RemovedComponents: []
  m_SourcePrefab: {fileID: 100100000, guid: b6d49af93046c6342ac6de8e7e259e46, type: 3}
--- !u!4 &1896185229 stripped
Transform:
  m_CorrespondingSourceObject: {fileID: 8266090407951456950, guid: b6d49af93046c6342ac6de8e7e259e46,
    type: 3}
  m_PrefabInstance: {fileID: 1896185228}
  m_PrefabAsset: {fileID: 0}
--- !u!114 &1925767251
MonoBehaviour:
  m_ObjectHideFlags: 0
  m_CorrespondingSourceObject: {fileID: 0}
  m_PrefabInstance: {fileID: 0}
  m_PrefabAsset: {fileID: 0}
  m_GameObject: {fileID: 0}
  m_Enabled: 1
  m_EditorHideFlags: 0
  m_Script: {fileID: 11500000, guid: d877ec3e844f2ca46830012e8e79319b, type: 3}
  m_Name: 
  m_EditorClassIdentifier: 
  active: 1
  m_AdvancedMode: 0
  rotation:
    m_OverrideState: 0
    m_Value: 0
    min: 0
    max: 360
  skyIntensityMode:
    m_OverrideState: 0
    m_Value: 0
  exposure:
    m_OverrideState: 0
    m_Value: 0
  multiplier:
    m_OverrideState: 0
    m_Value: 1
    min: 0
  upperHemisphereLuxValue:
    m_OverrideState: 0
    m_Value: 1
    min: 0
  upperHemisphereLuxColor:
    m_OverrideState: 0
    m_Value: {x: 0, y: 0, z: 0}
  desiredLuxValue:
    m_OverrideState: 0
    m_Value: 20000
  updateMode:
    m_OverrideState: 0
    m_Value: 0
  updatePeriod:
    m_OverrideState: 0
    m_Value: 0
    min: 0
  includeSunInBaking:
    m_OverrideState: 0
    m_Value: 0
  earthPreset:
    m_OverrideState: 0
    m_Value: 1
  sphericalMode:
    m_OverrideState: 0
    m_Value: 1
  seaLevel:
    m_OverrideState: 0
    m_Value: 0
  planetaryRadius:
    m_OverrideState: 0
    m_Value: 6378100
    min: 0
  planetCenterPosition:
    m_OverrideState: 0
    m_Value: {x: 0, y: -6378100, z: 0}
  airDensityR:
    m_OverrideState: 0
    m_Value: 0.04534
    min: 0
    max: 1
  airDensityG:
    m_OverrideState: 0
    m_Value: 0.10237241
    min: 0
    max: 1
  airDensityB:
    m_OverrideState: 0
    m_Value: 0.23264056
    min: 0
    max: 1
  airTint:
    m_OverrideState: 0
    m_Value: {r: 0.9, g: 0.9, b: 1, a: 1}
    hdr: 0
    showAlpha: 0
    showEyeDropper: 1
  airMaximumAltitude:
    m_OverrideState: 0
    m_Value: 55261.973
    min: 0
  aerosolDensity:
    m_OverrideState: 0
    m_Value: 0
    min: 0
    max: 1
  aerosolTint:
    m_OverrideState: 0
    m_Value: {r: 0.9, g: 0.9, b: 0.9, a: 1}
    hdr: 0
    showAlpha: 0
    showEyeDropper: 1
  aerosolMaximumAltitude:
    m_OverrideState: 0
    m_Value: 8289.296
    min: 0
  aerosolAnisotropy:
    m_OverrideState: 0
    m_Value: 0
    min: -1
    max: 1
  numberOfBounces:
    m_OverrideState: 0
    m_Value: 8
    min: 1
    max: 10
  groundTint:
    m_OverrideState: 0
    m_Value: {r: 0.4, g: 0.25, b: 0.15, a: 1}
    hdr: 0
    showAlpha: 0
    showEyeDropper: 0
  groundColorTexture:
    m_OverrideState: 0
    m_Value: {fileID: 0}
  groundEmissionTexture:
    m_OverrideState: 0
    m_Value: {fileID: 0}
  groundEmissionMultiplier:
    m_OverrideState: 0
    m_Value: 1
    min: 0
  planetRotation:
    m_OverrideState: 0
    m_Value: {x: 0, y: 0, z: 0}
  spaceEmissionTexture:
    m_OverrideState: 0
    m_Value: {fileID: 0}
  spaceEmissionMultiplier:
    m_OverrideState: 0
    m_Value: 1
    min: 0
  spaceRotation:
    m_OverrideState: 0
    m_Value: {x: 0, y: 0, z: 0}
  colorSaturation:
    m_OverrideState: 0
    m_Value: 0.823
    min: 0
    max: 1
  alphaSaturation:
    m_OverrideState: 0
    m_Value: 1
    min: 0
    max: 1
  alphaMultiplier:
    m_OverrideState: 0
    m_Value: 1
    min: 0
    max: 1
  horizonTint:
    m_OverrideState: 0
    m_Value: {r: 1, g: 1, b: 1, a: 1}
    hdr: 0
    showAlpha: 0
    showEyeDropper: 0
  zenithTint:
    m_OverrideState: 0
    m_Value: {r: 1, g: 1, b: 1, a: 1}
    hdr: 0
    showAlpha: 0
    showEyeDropper: 0
  horizonZenithShift:
    m_OverrideState: 0
    m_Value: 0
    min: -1
    max: 1
--- !u!1001 &1942749252
PrefabInstance:
  m_ObjectHideFlags: 0
  serializedVersion: 2
  m_Modification:
    m_TransformParent: {fileID: 1009527037}
    m_Modifications:
    - target: {fileID: 4966437632975513765, guid: b6d49af93046c6342ac6de8e7e259e46,
        type: 3}
      propertyPath: m_Name
      value: grass (6)
      objectReference: {fileID: 0}
    - target: {fileID: 8266090407951456950, guid: b6d49af93046c6342ac6de8e7e259e46,
        type: 3}
      propertyPath: m_LocalPosition.x
      value: -0.848
      objectReference: {fileID: 0}
    - target: {fileID: 8266090407951456950, guid: b6d49af93046c6342ac6de8e7e259e46,
        type: 3}
      propertyPath: m_LocalPosition.y
      value: -0.19
      objectReference: {fileID: 0}
    - target: {fileID: 8266090407951456950, guid: b6d49af93046c6342ac6de8e7e259e46,
        type: 3}
      propertyPath: m_LocalPosition.z
      value: -0.51
      objectReference: {fileID: 0}
    - target: {fileID: 8266090407951456950, guid: b6d49af93046c6342ac6de8e7e259e46,
        type: 3}
      propertyPath: m_LocalRotation.x
      value: 0.000000021855694
      objectReference: {fileID: 0}
    - target: {fileID: 8266090407951456950, guid: b6d49af93046c6342ac6de8e7e259e46,
        type: 3}
      propertyPath: m_LocalRotation.y
      value: -0
      objectReference: {fileID: 0}
    - target: {fileID: 8266090407951456950, guid: b6d49af93046c6342ac6de8e7e259e46,
        type: 3}
      propertyPath: m_LocalRotation.z
      value: -0
      objectReference: {fileID: 0}
    - target: {fileID: 8266090407951456950, guid: b6d49af93046c6342ac6de8e7e259e46,
        type: 3}
      propertyPath: m_LocalRotation.w
      value: 1
      objectReference: {fileID: 0}
    - target: {fileID: 8266090407951456950, guid: b6d49af93046c6342ac6de8e7e259e46,
        type: 3}
      propertyPath: m_RootOrder
      value: 5
      objectReference: {fileID: 0}
    - target: {fileID: 8266090407951456950, guid: b6d49af93046c6342ac6de8e7e259e46,
        type: 3}
      propertyPath: m_LocalEulerAnglesHint.x
      value: 0
      objectReference: {fileID: 0}
    - target: {fileID: 8266090407951456950, guid: b6d49af93046c6342ac6de8e7e259e46,
        type: 3}
      propertyPath: m_LocalEulerAnglesHint.y
      value: 0
      objectReference: {fileID: 0}
    - target: {fileID: 8266090407951456950, guid: b6d49af93046c6342ac6de8e7e259e46,
        type: 3}
      propertyPath: m_LocalEulerAnglesHint.z
      value: 0
      objectReference: {fileID: 0}
    - target: {fileID: 8266090407951456950, guid: b6d49af93046c6342ac6de8e7e259e46,
        type: 3}
      propertyPath: m_LocalScale.x
      value: 0.58764
      objectReference: {fileID: 0}
    - target: {fileID: 8266090407951456950, guid: b6d49af93046c6342ac6de8e7e259e46,
        type: 3}
      propertyPath: m_LocalScale.y
      value: 0.58764
      objectReference: {fileID: 0}
    - target: {fileID: 8266090407951456950, guid: b6d49af93046c6342ac6de8e7e259e46,
        type: 3}
      propertyPath: m_LocalScale.z
      value: 0.58764
      objectReference: {fileID: 0}
    m_RemovedComponents: []
  m_SourcePrefab: {fileID: 100100000, guid: b6d49af93046c6342ac6de8e7e259e46, type: 3}
--- !u!4 &1942749253 stripped
Transform:
  m_CorrespondingSourceObject: {fileID: 8266090407951456950, guid: b6d49af93046c6342ac6de8e7e259e46,
    type: 3}
  m_PrefabInstance: {fileID: 1942749252}
  m_PrefabAsset: {fileID: 0}
--- !u!1001 &2017291577
PrefabInstance:
  m_ObjectHideFlags: 0
  serializedVersion: 2
  m_Modification:
    m_TransformParent: {fileID: 1009527037}
    m_Modifications:
    - target: {fileID: 4966437632975513765, guid: b6d49af93046c6342ac6de8e7e259e46,
        type: 3}
      propertyPath: m_Name
      value: grass (10)
      objectReference: {fileID: 0}
    - target: {fileID: 8266090407951456950, guid: b6d49af93046c6342ac6de8e7e259e46,
        type: 3}
      propertyPath: m_LocalPosition.x
      value: -0.07399869
      objectReference: {fileID: 0}
    - target: {fileID: 8266090407951456950, guid: b6d49af93046c6342ac6de8e7e259e46,
        type: 3}
      propertyPath: m_LocalPosition.y
      value: -0.19
      objectReference: {fileID: 0}
    - target: {fileID: 8266090407951456950, guid: b6d49af93046c6342ac6de8e7e259e46,
        type: 3}
      propertyPath: m_LocalPosition.z
      value: -0.64900136
      objectReference: {fileID: 0}
    - target: {fileID: 8266090407951456950, guid: b6d49af93046c6342ac6de8e7e259e46,
        type: 3}
      propertyPath: m_LocalRotation.x
      value: 0.000000021855694
      objectReference: {fileID: 0}
    - target: {fileID: 8266090407951456950, guid: b6d49af93046c6342ac6de8e7e259e46,
        type: 3}
      propertyPath: m_LocalRotation.y
      value: -0
      objectReference: {fileID: 0}
    - target: {fileID: 8266090407951456950, guid: b6d49af93046c6342ac6de8e7e259e46,
        type: 3}
      propertyPath: m_LocalRotation.z
      value: -0
      objectReference: {fileID: 0}
    - target: {fileID: 8266090407951456950, guid: b6d49af93046c6342ac6de8e7e259e46,
        type: 3}
      propertyPath: m_LocalRotation.w
      value: 1
      objectReference: {fileID: 0}
    - target: {fileID: 8266090407951456950, guid: b6d49af93046c6342ac6de8e7e259e46,
        type: 3}
      propertyPath: m_RootOrder
      value: 9
      objectReference: {fileID: 0}
    - target: {fileID: 8266090407951456950, guid: b6d49af93046c6342ac6de8e7e259e46,
        type: 3}
      propertyPath: m_LocalEulerAnglesHint.x
      value: 0
      objectReference: {fileID: 0}
    - target: {fileID: 8266090407951456950, guid: b6d49af93046c6342ac6de8e7e259e46,
        type: 3}
      propertyPath: m_LocalEulerAnglesHint.y
      value: 0
      objectReference: {fileID: 0}
    - target: {fileID: 8266090407951456950, guid: b6d49af93046c6342ac6de8e7e259e46,
        type: 3}
      propertyPath: m_LocalEulerAnglesHint.z
      value: 0
      objectReference: {fileID: 0}
    - target: {fileID: 8266090407951456950, guid: b6d49af93046c6342ac6de8e7e259e46,
        type: 3}
      propertyPath: m_LocalScale.x
      value: 0.58764
      objectReference: {fileID: 0}
    - target: {fileID: 8266090407951456950, guid: b6d49af93046c6342ac6de8e7e259e46,
        type: 3}
      propertyPath: m_LocalScale.y
      value: 0.58764
      objectReference: {fileID: 0}
    - target: {fileID: 8266090407951456950, guid: b6d49af93046c6342ac6de8e7e259e46,
        type: 3}
      propertyPath: m_LocalScale.z
      value: 0.58764
      objectReference: {fileID: 0}
    m_RemovedComponents: []
  m_SourcePrefab: {fileID: 100100000, guid: b6d49af93046c6342ac6de8e7e259e46, type: 3}
--- !u!4 &2017291578 stripped
Transform:
  m_CorrespondingSourceObject: {fileID: 8266090407951456950, guid: b6d49af93046c6342ac6de8e7e259e46,
    type: 3}
  m_PrefabInstance: {fileID: 2017291577}
  m_PrefabAsset: {fileID: 0}
--- !u!1001 &2043499221
PrefabInstance:
  m_ObjectHideFlags: 0
  serializedVersion: 2
  m_Modification:
    m_TransformParent: {fileID: 753367946}
    m_Modifications:
    - target: {fileID: 1577589821597124969, guid: f9e3ff5a1b8f49c4fa8686e68d2dadae,
        type: 3}
      propertyPath: m_Version
      value: 10
      objectReference: {fileID: 0}
    - target: {fileID: 3321477440709210067, guid: f9e3ff5a1b8f49c4fa8686e68d2dadae,
        type: 3}
      propertyPath: m_LocalPosition.x
      value: 0
      objectReference: {fileID: 0}
    - target: {fileID: 3321477440709210067, guid: f9e3ff5a1b8f49c4fa8686e68d2dadae,
        type: 3}
      propertyPath: m_LocalPosition.y
      value: 0
      objectReference: {fileID: 0}
    - target: {fileID: 3321477440709210067, guid: f9e3ff5a1b8f49c4fa8686e68d2dadae,
        type: 3}
      propertyPath: m_LocalPosition.z
      value: 0
      objectReference: {fileID: 0}
    - target: {fileID: 3321477440709210067, guid: f9e3ff5a1b8f49c4fa8686e68d2dadae,
        type: 3}
      propertyPath: m_LocalRotation.x
      value: 0
      objectReference: {fileID: 0}
    - target: {fileID: 3321477440709210067, guid: f9e3ff5a1b8f49c4fa8686e68d2dadae,
        type: 3}
      propertyPath: m_LocalRotation.y
      value: 0
      objectReference: {fileID: 0}
    - target: {fileID: 3321477440709210067, guid: f9e3ff5a1b8f49c4fa8686e68d2dadae,
        type: 3}
      propertyPath: m_LocalRotation.z
      value: 0
      objectReference: {fileID: 0}
    - target: {fileID: 3321477440709210067, guid: f9e3ff5a1b8f49c4fa8686e68d2dadae,
        type: 3}
      propertyPath: m_LocalRotation.w
      value: 1
      objectReference: {fileID: 0}
    - target: {fileID: 3321477440709210067, guid: f9e3ff5a1b8f49c4fa8686e68d2dadae,
        type: 3}
      propertyPath: m_RootOrder
      value: 0
      objectReference: {fileID: 0}
    - target: {fileID: 3321477440709210067, guid: f9e3ff5a1b8f49c4fa8686e68d2dadae,
        type: 3}
      propertyPath: m_LocalEulerAnglesHint.x
      value: 0
      objectReference: {fileID: 0}
    - target: {fileID: 3321477440709210067, guid: f9e3ff5a1b8f49c4fa8686e68d2dadae,
        type: 3}
      propertyPath: m_LocalEulerAnglesHint.y
      value: 0
      objectReference: {fileID: 0}
    - target: {fileID: 3321477440709210067, guid: f9e3ff5a1b8f49c4fa8686e68d2dadae,
        type: 3}
      propertyPath: m_LocalEulerAnglesHint.z
      value: 0
      objectReference: {fileID: 0}
    - target: {fileID: 5823510469358171751, guid: f9e3ff5a1b8f49c4fa8686e68d2dadae,
        type: 3}
      propertyPath: m_Name
      value: DefaultSceneRoot
      objectReference: {fileID: 0}
    - target: {fileID: 5823510469358171751, guid: f9e3ff5a1b8f49c4fa8686e68d2dadae,
        type: 3}
      propertyPath: m_IsActive
      value: 0
      objectReference: {fileID: 0}
    m_RemovedComponents: []
  m_SourcePrefab: {fileID: 100100000, guid: f9e3ff5a1b8f49c4fa8686e68d2dadae, type: 3}
--- !u!4 &2043499222 stripped
Transform:
  m_CorrespondingSourceObject: {fileID: 3321477440709210067, guid: f9e3ff5a1b8f49c4fa8686e68d2dadae,
    type: 3}
  m_PrefabInstance: {fileID: 2043499221}
  m_PrefabAsset: {fileID: 0}
--- !u!1001 &6617735852127177779
PrefabInstance:
  m_ObjectHideFlags: 0
  serializedVersion: 2
  m_Modification:
    m_TransformParent: {fileID: 0}
    m_Modifications:
    - target: {fileID: 6617735851888953536, guid: 71d1657d5ebe1714aa38cbf47ae9ee76,
        type: 3}
      propertyPath: m_Name
      value: Map_v1
      objectReference: {fileID: 0}
    - target: {fileID: 6617735851888953543, guid: 71d1657d5ebe1714aa38cbf47ae9ee76,
        type: 3}
      propertyPath: m_LocalPosition.x
      value: -1.9975858
      objectReference: {fileID: 0}
    - target: {fileID: 6617735851888953543, guid: 71d1657d5ebe1714aa38cbf47ae9ee76,
        type: 3}
      propertyPath: m_LocalPosition.y
      value: 12.995726
      objectReference: {fileID: 0}
    - target: {fileID: 6617735851888953543, guid: 71d1657d5ebe1714aa38cbf47ae9ee76,
        type: 3}
      propertyPath: m_LocalPosition.z
      value: -12.008236
      objectReference: {fileID: 0}
    - target: {fileID: 6617735851888953543, guid: 71d1657d5ebe1714aa38cbf47ae9ee76,
        type: 3}
      propertyPath: m_LocalRotation.x
      value: 0
      objectReference: {fileID: 0}
    - target: {fileID: 6617735851888953543, guid: 71d1657d5ebe1714aa38cbf47ae9ee76,
        type: 3}
      propertyPath: m_LocalRotation.y
      value: 0
      objectReference: {fileID: 0}
    - target: {fileID: 6617735851888953543, guid: 71d1657d5ebe1714aa38cbf47ae9ee76,
        type: 3}
      propertyPath: m_LocalRotation.z
      value: 0
      objectReference: {fileID: 0}
    - target: {fileID: 6617735851888953543, guid: 71d1657d5ebe1714aa38cbf47ae9ee76,
        type: 3}
      propertyPath: m_LocalRotation.w
      value: 1
      objectReference: {fileID: 0}
    - target: {fileID: 6617735851888953543, guid: 71d1657d5ebe1714aa38cbf47ae9ee76,
        type: 3}
      propertyPath: m_RootOrder
      value: 1
      objectReference: {fileID: 0}
    - target: {fileID: 6617735851888953543, guid: 71d1657d5ebe1714aa38cbf47ae9ee76,
        type: 3}
      propertyPath: m_LocalEulerAnglesHint.x
      value: 0
      objectReference: {fileID: 0}
    - target: {fileID: 6617735851888953543, guid: 71d1657d5ebe1714aa38cbf47ae9ee76,
        type: 3}
      propertyPath: m_LocalEulerAnglesHint.y
      value: 0
      objectReference: {fileID: 0}
    - target: {fileID: 6617735851888953543, guid: 71d1657d5ebe1714aa38cbf47ae9ee76,
        type: 3}
      propertyPath: m_LocalEulerAnglesHint.z
      value: 0
      objectReference: {fileID: 0}
    m_RemovedComponents: []
  m_SourcePrefab: {fileID: 100100000, guid: 71d1657d5ebe1714aa38cbf47ae9ee76, type: 3}
